﻿<?xml version="1.0" encoding="utf-8"?>
<!DOCTYPE svg PUBLIC "-//W3C//DTD SVG 1.0//EN" "http://www.w3.org/TR/2001/REC-SVG-20010904/DTD/svg10.dtd"[
	<!ENTITY ns_flows "http://ns.adobe.com/Flows/1.0/">
	<!ENTITY ns_svg "http://www.w3.org/2000/svg">
	<!ENTITY ns_xlink "http://www.w3.org/1999/xlink">
	<!ENTITY st0 "font-size:7px;font-family:'MS-PGothic';adobe-font-script:japanese;">
	<!ENTITY st1 "font-size:6px;font-family:'ArialMT';">
	<!-- White fill  -->
	<!ENTITY st2 "fill:#FFFFFF;stroke:#000000; stroke-width:1.41;stroke-linecap:round;stroke-linejoin:round;">
	<!-- Yellow fill  -->
	<!ENTITY st3 "fill:#FFFFCC;stroke:#FFFFCC; stroke-width:0.1;stroke-linecap:round;stroke-linejoin:round;">
	<!-- Gray fill  -->
	<!ENTITY st4 "fill:#CCCCCC;stroke:#CCCCCC; stroke-width:0.1;stroke-linecap:round;stroke-linejoin:round;">
	<!-- Light-blue fill -->
	<!ENTITY st5 "fill:#CCECF4;stroke:#000000; stroke-width:1.133;stroke-linecap:round;stroke-linejoin:round;">
	<!ENTITY st6 "fill:none;stroke-linecap:butt; stroke-linejoin:round;">
	<!ENTITY st7 "fill:none;stroke:#000000;stroke-linecap:round;stroke-linejoin:round;">
	<!ENTITY st8 "enable-background:new    ;">
	<!-- Black fill -->
	<!ENTITY st9 "fill:#000000;stroke:#000000; stroke-linecap:round;stroke-linejoin:round;">
	<!-- SRS note   -->
	<!ENTITY st10 "font-size:9px;font-family:'ArialMT';">
	<!ENTITY st11 "font-size:9px;font-family:'Svg Symbol';">
	<!ENTITY st12 "font-size:6px;font-family:'Svg Symbol';">
	<!ENTITY st13 "fill:none;stroke:#ff0000;stroke-linecap:round;stroke-linejoin:round;">
	<!-- Yellow fill  -->
	<!ENTITY st14 "fill:#FFFF00;stroke:#FFFF00; stroke-width:0.1;stroke-linecap:round;stroke-linejoin:round;">
	<!ENTITY st15 "font-size:6px;font-family:'MS-PGothic';adobe-font-script:japanese;">
	<!ENTITY st16 "1.00 0.00 0.00 1.00">
	<!ENTITY st17 "0.00 -1.00 1.00 0.00">
	<!ENTITY st18 "font-size:6px;font-family:'Arial';">
	<!ENTITY st19 "font-size:9px;font-family:'Arial';">
	<!ENTITY st20 "font-size:6px;font-family:'MS-PGothic','MS PGothic';adobe-font-script:japanese;">
	<!ENTITY st21 "font-size:7px;font-family:'MS-PGothic','MS PGothic';adobe-font-script:japanese;">
	<!ATTLIST svg
		xmlns:ewd CDATA #FIXED "http://shcl.co.jp/ewd"
		xmlns:a CDATA #FIXED "http://ns.adobe.com/AdobeSVGViewerExtensions/3.0/"
		ewd:ver CDATA #IMPLIED
	>
	<!ATTLIST a
		ewd:lineID CDATA #IMPLIED
		ewd:groupID CDATA #IMPLIED
		ewd:figtype CDATA #IMPLIED
		ewd:code CDATA #IMPLIED
		ewd:figID CDATA #IMPLIED
		ewd:pinNo CDATA #IMPLIED
		ewd:comment CDATA #IMPLIED >
	<!ATTLIST g
		ewd:lineID CDATA #IMPLIED
		ewd:groupID CDATA #IMPLIED
		ewd:figtype CDATA #IMPLIED
		ewd:code CDATA #IMPLIED
		ewd:figID CDATA #IMPLIED
		ewd:pinNo CDATA #IMPLIED
		ewd:comment CDATA #IMPLIED >
	<!ATTLIST text
		ewd:textID CDATA #IMPLIED >
	<!ATTLIST title
		ewd:textID CDATA #IMPLIED >
]>
<!-- Generator: Shintec Hozumi YS   -->
<svg onload="call_execInitLoadProc_svg('system')" style="overflow:visible;  enable-background:new 0 0 3624.957 710.000" viewBox="0 0 3624.957 710.000" height="710.000" width="3624.957" xml:space="preserve" ewd:ver="L2.1.2.9" xmlns="&ns_svg;" xmlns:a="http://ns.adobe.com/AdobeSVGViewerExtensions/3.0/" xmlns:ewd="http://shcl.co.jp/ewd" xmlns:xlink="&ns_xlink;">
<path d=" M  1767.70,   333.23  L  1640.23,   333.23  L  1640.23,   367.22  L  1767.70,   367.22  " style="stroke:#000000;stroke-width: 0.85;stroke-dasharray:3, 1.5;&st6;" /><path d=" M  1767.70,   239.75  L  1640.23,   239.75  L  1640.23,   282.24  L  1767.70,   282.24  " style="stroke:#000000;stroke-width: 0.85;stroke-dasharray:3, 1.5;&st6;" /><path d=" M  1997.17,   362.97  L  1861.19,   362.97  L  1861.19,   405.47  L  1997.17,   405.47  " style="stroke:#000000;stroke-width: 0.85;stroke-dasharray:3, 1.5;&st6;" /><path d=" M  1997.17,   239.75  L  1861.19,   239.75  L  1861.19,   282.24  L  1997.17,   282.24  " style="stroke:#000000;stroke-width: 0.85;stroke-dasharray:3, 1.5;&st6;" /><path d=" M  1657.22,   307.73  L  1665.72,   307.73  " style="stroke-width: 1.42 ;&st7;  " /><path d=" M  1691.22,   307.73  L  1699.72,   307.73  " style="stroke-width: 1.42 ;&st7;  " /><path d=" M  1759.21,   307.73  L  1767.70,   307.73  " style="stroke-width: 1.42 ;&st7;  " /><path d=" M  1793.20,   307.73  L  1801.70,   307.73  " style="stroke-width: 1.42 ;&st7;  " /><path d=" M  1725.21,   307.73  L  1733.71,   307.73  " style="stroke-width: 1.42 ;&st7;  " /><path d=" M  2005.66,   316.23  L  1997.17,   316.23  " style="stroke-width: 1.42 ;&st7;  " /><path d=" M  1971.67,   316.23  L  1963.17,   316.23  " style="stroke-width: 1.42 ;&st7;  " /><path d=" M  1937.68,   316.23  L  1929.18,   316.23  " style="stroke-width: 1.42 ;&st7;  " /><path d=" M  1903.68,   316.23  L  1895.18,   316.23  " style="stroke-width: 1.42 ;&st7;  " /><path d=" M  1767.70,   239.75  L  1767.70,   282.24  " style="stroke-width: 0.85 ;&st7; stroke-dasharray:3, 1.5;" /><path d=" M  1767.70,   282.24  L  1767.70,   307.73  " style="stroke-width: 0.85 ;&st7; stroke-dasharray:3, 1.5;" /><path d=" M  1767.70,   112.83  L  1767.70,   239.75  " style="stroke-width: 0.85 ;&st7; stroke-dasharray:3, 1.5;" /><path d=" M  1766.51,   238.74  L  1766.24,   239.21  L  1766.15,   239.75  L  1766.24,   240.28  L  1766.51,   240.75  L  1766.92,   241.09  L  1767.43,   241.28  L  1767.98,   241.28  L  1768.48,   241.09  L  1768.90,   240.75  L  1769.17,   240.28  L  1769.26,   239.75  L  1769.17,   239.21  L  1768.90,   238.74  L  1768.48,   238.40  L  1767.98,   238.21  L  1767.43,   238.21  L  1766.92,   238.40  L  1766.51,   238.74  L  1766.91,   239.45  L  1766.91,   240.04  L  1767.28,   240.48  L  1767.85,   240.58  L  1768.36,   240.29  L  1768.55,   239.75  L  1768.36,   239.20  L  1767.85,   238.91  L  1767.28,   239.01  L  1767.70,   239.75  " style="stroke-width: 0.85 ;&st7;  " /><path d=" M  1766.51,   281.24  L  1766.24,   281.71  L  1766.15,   282.24  L  1766.24,   282.77  L  1766.51,   283.24  L  1766.92,   283.59  L  1767.43,   283.77  L  1767.98,   283.77  L  1768.48,   283.59  L  1768.90,   283.24  L  1769.17,   282.77  L  1769.26,   282.24  L  1769.17,   281.71  L  1768.90,   281.24  L  1768.48,   280.89  L  1767.98,   280.70  L  1767.43,   280.70  L  1766.92,   280.89  L  1766.51,   281.24  L  1766.91,   281.95  L  1766.91,   282.53  L  1767.28,   282.97  L  1767.85,   283.07  L  1768.36,   282.79  L  1768.55,   282.24  L  1768.36,   281.69  L  1767.85,   281.40  L  1767.28,   281.50  L  1767.70,   282.24  " style="stroke-width: 0.85 ;&st7;  " /><path d=" M  1661.47,   298.67  L  1665.72,   302.92  L  1669.97,   298.67  " style="stroke-width: 1.42 ;&st7;  " /><path d=" M  1669.97,   302.07  L  1665.72,   306.32  L  1661.47,   302.07  " style="stroke-width: 1.42 ;&st7;  " /><path d=" M  1695.47,   298.67  L  1699.72,   302.92  L  1703.96,   298.67  " style="stroke-width: 1.42 ;&st7;  " /><path d=" M  1703.96,   302.07  L  1699.72,   306.32  L  1695.47,   302.07  " style="stroke-width: 1.42 ;&st7;  " /><path d=" M  1763.45,   298.67  L  1767.70,   302.92  L  1771.95,   298.67  " style="stroke-width: 1.42 ;&st7;  " /><path d=" M  1771.95,   302.07  L  1767.70,   306.32  L  1763.45,   302.07  " style="stroke-width: 1.42 ;&st7;  " /><path d=" M  1797.45,   298.67  L  1801.70,   302.92  L  1805.95,   298.67  " style="stroke-width: 1.42 ;&st7;  " /><path d=" M  1805.95,   302.07  L  1801.70,   306.32  L  1797.45,   302.07  " style="stroke-width: 1.42 ;&st7;  " /><path d=" M  1729.46,   298.67  L  1733.71,   302.92  L  1737.96,   298.67  " style="stroke-width: 1.42 ;&st7;  " /><path d=" M  1737.96,   302.07  L  1733.71,   306.32  L  1729.46,   302.07  " style="stroke-width: 1.42 ;&st7;  " /><path d=" M  1766.51,   366.22  L  1766.24,   366.69  L  1766.15,   367.22  L  1766.24,   367.76  L  1766.51,   368.23  L  1766.92,   368.57  L  1767.43,   368.76  L  1767.98,   368.76  L  1768.48,   368.57  L  1768.90,   368.23  L  1769.17,   367.76  L  1769.26,   367.22  L  1769.17,   366.69  L  1768.90,   366.22  L  1768.48,   365.88  L  1767.98,   365.69  L  1767.43,   365.69  L  1766.92,   365.88  L  1766.51,   366.22  L  1766.91,   366.93  L  1766.91,   367.52  L  1767.28,   367.96  L  1767.85,   368.06  L  1768.36,   367.77  L  1768.55,   367.22  L  1768.36,   366.68  L  1767.85,   366.39  L  1767.28,   366.49  L  1767.70,   367.22  " style="stroke-width: 0.85 ;&st7;  " /><path d=" M  1766.51,   332.23  L  1766.24,   332.70  L  1766.15,   333.23  L  1766.24,   333.76  L  1766.51,   334.23  L  1766.92,   334.58  L  1767.43,   334.77  L  1767.98,   334.77  L  1768.48,   334.58  L  1768.90,   334.23  L  1769.17,   333.76  L  1769.26,   333.23  L  1769.17,   332.70  L  1768.90,   332.23  L  1768.48,   331.88  L  1767.98,   331.69  L  1767.43,   331.69  L  1766.92,   331.88  L  1766.51,   332.23  L  1766.91,   332.94  L  1766.91,   333.52  L  1767.28,   333.97  L  1767.85,   334.07  L  1768.36,   333.78  L  1768.55,   333.23  L  1768.36,   332.68  L  1767.85,   332.39  L  1767.28,   332.49  L  1767.70,   333.23  " style="stroke-width: 0.85 ;&st7;  " /><path d=" M  1767.70,   316.23  L  1767.70,   392.72  " style="stroke-width: 0.85 ;&st7; stroke-dasharray:3, 1.5;" /><path d=" M  1648.72,   392.72  L  1648.72,   435.21  L  1818.70,   435.21  L  1818.70,   392.72  L  1648.72,   392.72  " style="stroke-width: 1.42 ;&st7;  " /><path d=" M  1767.70,   112.83  L  1784.70,   129.26  L  1784.70,   146.26  L  1997.17,   146.26  L  1997.17,   307.73  " style="stroke-width: 0.85 ;&st7; stroke-dasharray:3, 1.5;" /><path d=" M  1995.97,   238.74  L  1995.70,   239.21  L  1995.61,   239.75  L  1995.70,   240.28  L  1995.97,   240.75  L  1996.39,   241.09  L  1996.89,   241.28  L  1997.44,   241.28  L  1997.94,   241.09  L  1998.36,   240.75  L  1998.63,   240.28  L  1998.72,   239.75  L  1998.63,   239.21  L  1998.36,   238.74  L  1997.94,   238.40  L  1997.44,   238.21  L  1996.89,   238.21  L  1996.39,   238.40  L  1995.97,   238.74  L  1996.37,   239.45  L  1996.37,   240.04  L  1996.74,   240.48  L  1997.31,   240.58  L  1997.82,   240.29  L  1998.02,   239.75  L  1997.82,   239.20  L  1997.31,   238.91  L  1996.74,   239.01  L  1997.17,   239.75  " style="stroke-width: 0.85 ;&st7;  " /><path d=" M  1995.97,   281.24  L  1995.70,   281.71  L  1995.61,   282.24  L  1995.70,   282.77  L  1995.97,   283.24  L  1996.39,   283.59  L  1996.89,   283.77  L  1997.44,   283.77  L  1997.94,   283.59  L  1998.36,   283.24  L  1998.63,   282.77  L  1998.72,   282.24  L  1998.63,   281.71  L  1998.36,   281.24  L  1997.94,   280.89  L  1997.44,   280.70  L  1996.89,   280.70  L  1996.39,   280.89  L  1995.97,   281.24  L  1996.37,   281.95  L  1996.37,   282.53  L  1996.74,   282.97  L  1997.31,   283.07  L  1997.82,   282.79  L  1998.02,   282.24  L  1997.82,   281.69  L  1997.31,   281.40  L  1996.74,   281.50  L  1997.17,   282.24  " style="stroke-width: 0.85 ;&st7;  " /><path d=" M  2001.41,   321.90  L  1997.17,   317.65  L  1992.92,   321.90  " style="stroke-width: 1.42 ;&st7;  " /><path d=" M  2001.41,   325.30  L  1997.17,   321.05  L  1992.92,   325.30  " style="stroke-width: 1.42 ;&st7;  " /><path d=" M  1967.42,   321.90  L  1963.17,   317.65  L  1958.92,   321.90  " style="stroke-width: 1.42 ;&st7;  " /><path d=" M  1967.42,   325.30  L  1963.17,   321.05  L  1958.92,   325.30  " style="stroke-width: 1.42 ;&st7;  " /><path d=" M  1933.43,   321.90  L  1929.18,   317.65  L  1924.93,   321.90  " style="stroke-width: 1.42 ;&st7;  " /><path d=" M  1933.43,   325.30  L  1929.18,   321.05  L  1924.93,   325.30  " style="stroke-width: 1.42 ;&st7;  " /><path d=" M  1899.43,   321.90  L  1895.18,   317.65  L  1890.93,   321.90  " style="stroke-width: 1.42 ;&st7;  " /><path d=" M  1899.43,   325.30  L  1895.18,   321.05  L  1890.93,   325.30  " style="stroke-width: 1.42 ;&st7;  " /><path d=" M  1995.97,   361.97  L  1995.70,   362.44  L  1995.61,   362.97  L  1995.70,   363.51  L  1995.97,   363.98  L  1996.39,   364.32  L  1996.89,   364.51  L  1997.44,   364.51  L  1997.94,   364.32  L  1998.36,   363.98  L  1998.63,   363.51  L  1998.72,   362.97  L  1998.63,   362.44  L  1998.36,   361.97  L  1997.94,   361.63  L  1997.44,   361.44  L  1996.89,   361.44  L  1996.39,   361.63  L  1995.97,   361.97  L  1996.37,   362.68  L  1996.37,   363.27  L  1996.74,   363.71  L  1997.31,   363.81  L  1997.82,   363.52  L  1998.02,   362.97  L  1997.82,   362.43  L  1997.31,   362.14  L  1996.74,   362.24  L  1997.17,   362.97  " style="stroke-width: 0.85 ;&st7;  " /><path d=" M  1995.97,   404.46  L  1995.70,   404.94  L  1995.61,   405.47  L  1995.70,   406.00  L  1995.97,   406.47  L  1996.39,   406.82  L  1996.89,   407.00  L  1997.44,   407.00  L  1997.94,   406.82  L  1998.36,   406.47  L  1998.63,   406.00  L  1998.72,   405.47  L  1998.63,   404.94  L  1998.36,   404.46  L  1997.94,   404.12  L  1997.44,   403.93  L  1996.89,   403.93  L  1996.39,   404.12  L  1995.97,   404.46  L  1996.37,   405.18  L  1996.37,   405.76  L  1996.74,   406.20  L  1997.31,   406.30  L  1997.82,   406.01  L  1998.02,   405.47  L  1997.82,   404.92  L  1997.31,   404.63  L  1996.74,   404.73  L  1997.17,   405.47  " style="stroke-width: 0.85 ;&st7;  " /><path d=" M  1806.23,   108.30  C  1806.23    105.80   1804.20    103.77   1801.70    103.77  " style="stroke-width: 1.42 ;&st7;   " /><path d=" M  1801.70,   103.77  C  1799.20    103.77   1797.17    105.80   1797.17    108.30  " style="stroke-width: 1.42 ;&st7;   " /><path d=" M  1797.17,   108.30  C  1797.17    110.80   1799.20    112.83   1801.70    112.83  " style="stroke-width: 1.42 ;&st7;   " /><path d=" M  1801.70,   112.83  C  1804.20    112.83   1806.23    110.80   1806.23    108.30  " style="stroke-width: 1.42 ;&st7;   " /><path d=" M  1704.25,   108.30  C  1704.25    105.80   1702.22    103.77   1699.72    103.77  " style="stroke-width: 1.42 ;&st7;   " /><path d=" M  1699.72,   103.77  C  1697.21    103.77   1695.18    105.80   1695.18    108.30  " style="stroke-width: 1.42 ;&st7;   " /><path d=" M  1695.18,   108.30  C  1695.18    110.80   1697.21    112.83   1699.72    112.83  " style="stroke-width: 1.42 ;&st7;   " /><path d=" M  1699.72,   112.83  C  1702.22    112.83   1704.25    110.80   1704.25    108.30  " style="stroke-width: 1.42 ;&st7;   " /><path d=" M  1670.25,   108.30  C  1670.25    105.80   1668.22    103.77   1665.72    103.77  " style="stroke-width: 1.42 ;&st7;   " /><path d=" M  1665.72,   103.77  C  1663.22    103.77   1661.19    105.80   1661.19    108.30  " style="stroke-width: 1.42 ;&st7;   " /><path d=" M  1661.19,   108.30  C  1661.19    110.80   1663.22    112.83   1665.72    112.83  " style="stroke-width: 1.42 ;&st7;   " /><path d=" M  1665.72,   112.83  C  1668.22    112.83   1670.25    110.80   1670.25    108.30  " style="stroke-width: 1.42 ;&st7;   " /><path d=" M  1738.24,   108.30  C  1738.24    105.80   1736.21    103.77   1733.71    103.77  " style="stroke-width: 1.42 ;&st7;   " /><path d=" M  1733.71,   103.77  C  1731.21    103.77   1729.18    105.80   1729.18    108.30  " style="stroke-width: 1.42 ;&st7;   " /><path d=" M  1729.18,   108.30  C  1729.18    110.80   1731.21    112.83   1733.71    112.83  " style="stroke-width: 1.42 ;&st7;   " /><path d=" M  1733.71,   112.83  C  1736.21    112.83   1738.24    110.80   1738.24    108.30  " style="stroke-width: 1.42 ;&st7;   " /><path d=" M  1772.24,   108.30  C  1772.24    105.80   1770.21    103.77   1767.70    103.77  " style="stroke-width: 1.42 ;&st7;   " /><path d=" M  1767.70,   103.77  C  1765.20    103.77   1763.17    105.80   1763.17    108.30  " style="stroke-width: 1.42 ;&st7;   " /><path d=" M  1763.17,   108.30  C  1763.17    110.80   1765.20    112.83   1767.70    112.83  " style="stroke-width: 1.42 ;&st7;   " /><path d=" M  1767.70,   112.83  C  1770.21    112.83   1772.24    110.80   1772.24    108.30  " style="stroke-width: 1.42 ;&st7;   " /><text ewd:textID="5" style="&st18;" transform="matrix(&st16;  1577.33  20.75 )">* 5 :w/ Multi-Media Interface ECU</text><text ewd:textID="7" style="&st18;" transform="matrix(&st16;  1577.33  37.75 )">* 7 :From Aug. 2012 Production</text><text ewd:textID="6" style="&st18;" transform="matrix(&st16;  1577.33  29.25 )">* 6 :Before Aug. 2012 Production</text><text style="&st18;" transform="matrix(&st16;  1526.78  584.49 )">W</text><text style="&st18;" transform="matrix(&st16;  1577.77  584.49 )">W</text><text style="&st18;" transform="matrix(&st16;  1799.59  110.27 )">E</text><text style="&st18;" transform="matrix(&st16;  1789.9  110.27 )">19</text><text style="&st18;" transform="matrix(&st16;  1697.61  110.27 )">E</text><text style="&st18;" transform="matrix(&st16;  1687.92  110.27 )">15</text><text style="&st18;" transform="matrix(&st16;  1663.61  110.27 )">E</text><text style="&st18;" transform="matrix(&st16;  1653.93  110.27 )">17</text><text style="&st18;" transform="matrix(&st17;  1662.03  262.68 )">B</text><text style="&st18;" transform="matrix(&st17;  1696.02  262.6 )">R</text><text style="&st18;" transform="matrix(&st17;  1798.0  262.8 )">V</text><text ewd:textID="2" style="&st18;" transform="matrix(&st17;  1636.53  273.23 )">(Shielded)</text><text style="&st18;" transform="matrix(&st16;  1794.31  100.35 )">AUXI</text><text style="&st18;" transform="matrix(&st16;  1759.0  100.35 )">AGND</text><text style="&st18;" transform="matrix(&st16;  1694.66  100.35 )">ARI</text><text style="&st18;" transform="matrix(&st16;  1660.7  100.35 )">ALI</text><text style="&st18;" transform="matrix(&st16;  1649.99  313.95 )">53</text><text style="&st18;" transform="matrix(&st16;  1683.98  313.95 )">52</text><text style="&st18;" transform="matrix(&st16;  1751.97  313.95 )">55</text><text style="&st18;" transform="matrix(&st16;  1785.97  313.95 )">51</text><text style="&st18;" transform="matrix(&st16;  1731.6  110.27 )">E</text><text style="&st18;" transform="matrix(&st16;  1721.91  110.27 )">16</text><text style="&st18;" transform="matrix(&st17;  1730.01  263.46 )">W</text><text style="&st18;" transform="matrix(&st16;  1725.59  100.35 )">ASGN</text><text style="&st18;" transform="matrix(&st16;  1717.98  313.95 )">54</text><text ewd:textID="19" style="&st18;" transform="matrix(&st16;  1645.32  449.93 )">No. 1 Stereo Jack Adapter Assembly</text><text style="&st18;" transform="matrix(&st16;  1755.91  110.27 )">18</text><text style="&st18;" transform="matrix(&st16;  1765.59  110.27 )">E</text><text style="&st18;" transform="matrix(&st17;  1809.34  358.97 )">(*5 *6)</text><text style="&st18;" transform="matrix(&st17;  1673.36  269.74 )">(*5 *6)</text><text style="&st18;" transform="matrix(&st17;  1707.35  269.74 )">(*5 *6)</text><text style="&st18;" transform="matrix(&st17;  1647.86  269.74 )">(*5 *6)</text><text style="&st18;" transform="matrix(&st17;  1696.02  351.84 )">R</text><text style="&st18;" transform="matrix(&st17;  1741.35  358.97 )">(*5 *6)</text><text style="&st18;" transform="matrix(&st17;  1741.35  269.74 )">(*5 *6)</text><text style="&st18;" transform="matrix(&st16;  1759.0  400.35 )">AGND</text><text style="&st18;" transform="matrix(&st16;  1725.59  400.35 )">ASGN</text><text style="&st18;" transform="matrix(&st16;  1693.19  400.35 )">ARO</text><text style="&st18;" transform="matrix(&st16;  1659.23  400.35 )">ALO</text><text style="&st18;" transform="matrix(&st16;  1645.31  442.82 )">F31</text><text style="&st18;" transform="matrix(&st17;  1662.03  351.92 )">B</text><text style="&st18;" transform="matrix(&st17;  1647.86  358.97 )">(*5 *6)</text><text ewd:textID="2" style="&st18;" transform="matrix(&st17;  1636.53  362.46 )">(Shielded)</text><text style="&st18;" transform="matrix(&st17;  1798.0  352.03 )">V</text><text style="&st18;" transform="matrix(&st16;  1792.84  400.35 )">AUXO</text><text style="&st18;" transform="matrix(&st17;  1730.01  352.69 )">W</text><text style="&st18;" transform="matrix(&st17;  1707.35  358.97 )">(*5 *6)</text><text style="&st18;" transform="matrix(&st17;  1673.36  358.97 )">(*5 *6)</text><text style="&st18;" transform="matrix(&st17;  1809.34  269.74 )">(*5 *6)</text><text style="&st18;" transform="matrix(&st16;  1659.54  389.03 )">1</text><text style="&st18;" transform="matrix(&st16;  1693.53  389.03 )">2</text><text style="&st18;" transform="matrix(&st16;  1727.53  389.03 )">3</text><text style="&st18;" transform="matrix(&st16;  1761.52  389.03 )">5</text><text style="&st18;" transform="matrix(&st16;  1795.51  389.03 )">4</text><text style="&st18;" transform="matrix(&st16;  1578.55  533.5 )">B</text><text style="&st18;" transform="matrix(&st16;  1527.56  533.5 )">B</text><text style="&st18;" transform="matrix(&st16;  1578.63  558.99 )">R</text><text style="&st18;" transform="matrix(&st16;  1527.63  558.99 )">R</text><text style="&st18;" transform="matrix(&st17;  1959.48  263.46 )">W</text><text style="&st18;" transform="matrix(&st17;  1970.81  269.74 )">(*5 *7)</text><text style="&st18;" transform="matrix(&st17;  1925.48  262.6 )">R</text><text style="&st18;" transform="matrix(&st17;  1936.81  269.74 )">(*5 *7)</text><text style="&st18;" transform="matrix(&st17;  1891.49  262.68 )">B</text><text style="&st18;" transform="matrix(&st17;  1902.82  269.74 )">(*5 *7)</text><text ewd:textID="2" style="&st18;" transform="matrix(&st17;  1857.5  273.23 )">(Shielded)</text><text style="&st18;" transform="matrix(&st17;  1868.83  269.74 )">(*5 *7)</text><text ewd:textID="24" style="&st18;" transform="matrix(&st16;  1785.55  80.24 )">Radio Receiver Assembly</text><text style="&st18;" transform="matrix(&st16;  1785.54  73.13 )">G5(A),G6(B),G7(C),G8(D),G9(E)</text><text style="&st18;" transform="matrix(&st16;  1984.53  313.95 )">5</text><text style="&st18;" transform="matrix(&st16;  1950.54  313.95 )">3</text><text style="&st18;" transform="matrix(&st16;  1916.55  313.95 )">1</text><text style="&st18;" transform="matrix(&st16;  1882.55  313.95 )">2</text><text style="&st18;" transform="matrix(&st17;  1959.48  386.69 )">W</text><text style="&st18;" transform="matrix(&st17;  1970.81  392.97 )">(*5 *7)</text><text style="&st18;" transform="matrix(&st17;  1925.48  385.83 )">R</text><text style="&st18;" transform="matrix(&st17;  1936.81  392.97 )">(*5 *7)</text><text style="&st18;" transform="matrix(&st17;  1891.49  385.91 )">B</text><text style="&st18;" transform="matrix(&st17;  1902.82  392.97 )">(*5 *7)</text><text ewd:textID="2" style="&st18;" transform="matrix(&st17;  1857.5  396.46 )">(Shielded)</text><text style="&st18;" transform="matrix(&st17;  1868.83  392.97 )">(*5 *7)</text><text ewd:textID="2" style="&st18;" transform="matrix(&st16;  1568.0  609.99 )">(Shielded)</text><text ewd:textID="2" style="&st18;" transform="matrix(&st16;  1517.01  609.99 )">(Shielded)</text><text style="&st18;" transform="matrix(&st16;  1578.55  635.48 )">B</text><text style="&st18;" transform="matrix(&st16;  1527.56  635.48 )">B</text><text style="&st18;" transform="matrix(&st16;  1571.49  544.83 )">(*5 *7)</text><text style="&st18;" transform="matrix(&st16;  1571.49  570.33 )">(*5 *7)</text><text style="&st18;" transform="matrix(&st16;  1571.49  595.82 )">(*5 *7)</text><text style="&st18;" transform="matrix(&st16;  1571.49  621.32 )">(*5 *7)</text><text style="&st18;" transform="matrix(&st16;  1571.49  646.81 )">(*5 *7)</text><text style="&st18;" transform="matrix(&st16;  1520.5  646.81 )">(*5 *7)</text><text style="&st18;" transform="matrix(&st16;  1520.5  621.32 )">(*5 *7)</text><text style="&st18;" transform="matrix(&st16;  1520.5  595.82 )">(*5 *7)</text><text style="&st18;" transform="matrix(&st16;  1520.5  570.33 )">(*5 *7)</text><text style="&st18;" transform="matrix(&st16;  1520.5  544.83 )">(*5 *7)</text></svg>