﻿<?xml version="1.0" encoding="utf-8"?>
<!DOCTYPE svg PUBLIC "-//W3C//DTD SVG 1.0//EN" "http://www.w3.org/TR/2001/REC-SVG-20010904/DTD/svg10.dtd"[
	<!ENTITY ns_flows "http://ns.adobe.com/Flows/1.0/">
	<!ENTITY ns_svg "http://www.w3.org/2000/svg">
	<!ENTITY ns_xlink "http://www.w3.org/1999/xlink">
	<!ENTITY st0 "font-size:7px;font-family:'MS-PGothic';adobe-font-script:japanese;">
	<!ENTITY st1 "font-size:6px;font-family:'ArialMT';">
	<!-- White fill  -->
	<!ENTITY st2 "fill:#FFFFFF;stroke:#000000; stroke-width:1.41;stroke-linecap:round;stroke-linejoin:round;">
	<!-- Yellow fill  -->
	<!ENTITY st3 "fill:#FFFFCC;stroke:#FFFFCC; stroke-width:0.1;stroke-linecap:round;stroke-linejoin:round;">
	<!-- Gray fill  -->
	<!ENTITY st4 "fill:#CCCCCC;stroke:#CCCCCC; stroke-width:0.1;stroke-linecap:round;stroke-linejoin:round;">
	<!-- Light-blue fill -->
	<!ENTITY st5 "fill:#CCECF4;stroke:#000000; stroke-width:1.133;stroke-linecap:round;stroke-linejoin:round;">
	<!ENTITY st6 "fill:none;stroke-linecap:butt; stroke-linejoin:round;">
	<!ENTITY st7 "fill:none;stroke:#000000;stroke-linecap:round;stroke-linejoin:round;">
	<!ENTITY st8 "enable-background:new    ;">
	<!-- Black fill -->
	<!ENTITY st9 "fill:#000000;stroke:#000000; stroke-linecap:round;stroke-linejoin:round;">
	<!-- SRS note   -->
	<!ENTITY st10 "font-size:9px;font-family:'ArialMT';">
	<!ENTITY st11 "font-size:9px;font-family:'Svg Symbol';">
	<!ENTITY st12 "font-size:6px;font-family:'Svg Symbol';">
	<!ENTITY st13 "fill:none;stroke:#ff0000;stroke-linecap:round;stroke-linejoin:round;">
	<!-- Yellow fill  -->
	<!ENTITY st14 "fill:#FFFF00;stroke:#FFFF00; stroke-width:0.1;stroke-linecap:round;stroke-linejoin:round;">
	<!ENTITY st15 "font-size:6px;font-family:'MS-PGothic';adobe-font-script:japanese;">
	<!ENTITY st16 "1.00 0.00 0.00 1.00">
	<!ENTITY st17 "0.00 -1.00 1.00 0.00">
	<!ENTITY st18 "font-size:6px;font-family:'Arial';">
	<!ENTITY st19 "font-size:9px;font-family:'Arial';">
	<!ENTITY st20 "font-size:6px;font-family:'MS-PGothic','MS PGothic';adobe-font-script:japanese;">
	<!ENTITY st21 "font-size:7px;font-family:'MS-PGothic','MS PGothic';adobe-font-script:japanese;">
	<!ATTLIST svg
		xmlns:ewd CDATA #FIXED "http://shcl.co.jp/ewd"
		xmlns:a CDATA #FIXED "http://ns.adobe.com/AdobeSVGViewerExtensions/3.0/"
		ewd:ver CDATA #IMPLIED
	>
	<!ATTLIST a
		ewd:lineID CDATA #IMPLIED
		ewd:groupID CDATA #IMPLIED
		ewd:figtype CDATA #IMPLIED
		ewd:code CDATA #IMPLIED
		ewd:figID CDATA #IMPLIED
		ewd:pinNo CDATA #IMPLIED
		ewd:comment CDATA #IMPLIED >
	<!ATTLIST g
		ewd:lineID CDATA #IMPLIED
		ewd:groupID CDATA #IMPLIED
		ewd:figtype CDATA #IMPLIED
		ewd:code CDATA #IMPLIED
		ewd:figID CDATA #IMPLIED
		ewd:pinNo CDATA #IMPLIED
		ewd:comment CDATA #IMPLIED >
	<!ATTLIST text
		ewd:textID CDATA #IMPLIED >
	<!ATTLIST title
		ewd:textID CDATA #IMPLIED >
]>
<!-- Generator: Shintec Hozumi YS   -->
<svg onload="call_execInitLoadProc_svg('system')" style="overflow:visible;  enable-background:new 0 0 3611.897 710.000" viewBox="0 0 3611.897 710.000" height="710.000" width="3611.897" xml:space="preserve" ewd:ver="L2.1.2.9" xmlns="&ns_svg;" xmlns:a="http://ns.adobe.com/AdobeSVGViewerExtensions/3.0/" xmlns:ewd="http://shcl.co.jp/ewd" xmlns:xlink="&ns_xlink;">
<path d=" M  3563.03,   103.77  L  3558.78,   103.77  " style="stroke-width: 1.42 ;&st7;  " /><path d=" M  3563.03,    95.27  L  3558.78,    95.27  " style="stroke-width: 1.42 ;&st7;  " /><path d=" M  3560.90,    69.77  L  3560.90,    95.27  " style="stroke-width: 0.85 ;&st7;  " /><path d=" M  3573.65,    78.27  L  3573.65,    35.78  L  3548.16,    35.78  L  3548.16,    78.27  L  3573.65,    78.27  " style="stroke-width: 1.42 ;&st7;  " /><path d=" M  3560.90,    90.37  L  3558.07,    87.54  L  3558.07,    91.79  L  3560.90,    94.62  L  3563.74,    91.79  L  3563.74,    87.54  L  3560.90,    90.37  " style="stroke-width: 0.28 ;&st9;  " /><path d=" M  3562.32,    68.36  C  3562.32     67.57   3561.69     66.94   3560.91     66.94  " style="stroke-width: 0.85 ;&st7;   " /><path d=" M  3560.91,    66.94  C  3560.12     66.94   3559.49     67.57   3559.49     68.36  " style="stroke-width: 0.85 ;&st7;   " /><path d=" M  3559.49,    68.36  C  3559.49     69.14   3560.12     69.77   3560.91     69.77  " style="stroke-width: 0.85 ;&st7;   " /><path d=" M  3560.91,    69.77  C  3561.69     69.77   3562.32     69.14   3562.32     68.36  " style="stroke-width: 0.85 ;&st7;   " /><path d=" M  3562.32,    45.69  C  3562.32     44.91   3561.69     44.28   3560.91     44.28  " style="stroke-width: 0.85 ;&st7;   " /><path d=" M  3560.91,    44.28  C  3560.12     44.28   3559.49     44.91   3559.49     45.69  " style="stroke-width: 0.85 ;&st7;   " /><path d=" M  3559.49,    45.69  C  3559.49     46.48   3560.12     47.11   3560.91     47.11  " style="stroke-width: 0.85 ;&st7;   " /><path d=" M  3560.91,    47.11  C  3561.69     47.11   3562.32     46.48   3562.32     45.69  " style="stroke-width: 0.85 ;&st7;   " /><path d=" M  3560.91,    66.94  C  3563.64     65.33   3564.55     61.80   3562.94     59.06  " style="stroke-width: 1.42 ;&st7;   " /><path d=" M  3562.94,    59.06  C  3562.42     58.18   3561.79     57.55   3560.91     57.03  " style="stroke-width: 1.42 ;&st7;   " /><path d=" M  3560.91,    47.11  C  3558.17     48.72   3557.26     52.25   3558.87     54.99  " style="stroke-width: 1.42 ;&st7;   " /><path d=" M  3558.87,    54.99  C  3559.39     55.87   3560.02     56.51   3560.91     57.03  " style="stroke-width: 1.42 ;&st7;   " /><path d=" M  3558.78,    95.27  C  3556.43     95.27   3554.53     97.17   3554.53     99.52  " style="stroke-width: 1.42 ;&st7;   " /><path d=" M  3554.53,    99.52  C  3554.53    101.87   3556.43    103.77   3558.78    103.77  " style="stroke-width: 1.42 ;&st7;   " /><path d=" M  3563.03,   103.77  C  3565.38    103.77   3567.28    101.87   3567.28     99.52  " style="stroke-width: 1.42 ;&st7;   " /><path d=" M  3567.28,    99.52  C  3567.28     97.17   3565.38     95.27   3563.03     95.27  " style="stroke-width: 1.42 ;&st7;   " /><text style="&st18;" transform="matrix(&st16;  3555.69  32.08 )">(IG)</text><text style="&st18;" transform="matrix(&st16;  3500.84  56.17 )">30A <tspan dy="6.0" x="0 ">DOOR BACK</tspan></text><text style="&st18;" transform="matrix(&st16;  3577.33  53.34 )">10A <tspan dy="6.0" x="0 ">ECU-IG </tspan><tspan dy="6.0" x="0 ">NO.1</tspan></text><text style="&st18;" transform="matrix(&st16;  3557.24  101.49 )">2F</text><text style="&st18;" transform="matrix(&st16;  3547.3  101.49 )">30</text><text style="&st18;" transform="matrix(&st17;  3557.21  131.22 )">G</text></svg>