﻿<?xml version="1.0" encoding="utf-8"?>
<!DOCTYPE svg PUBLIC "-//W3C//DTD SVG 1.0//EN" "http://www.w3.org/TR/2001/REC-SVG-20010904/DTD/svg10.dtd"[
	<!ENTITY ns_flows "http://ns.adobe.com/Flows/1.0/">
	<!ENTITY ns_svg "http://www.w3.org/2000/svg">
	<!ENTITY ns_xlink "http://www.w3.org/1999/xlink">
	<!ENTITY st0 "font-size:7px;font-family:'MS-PGothic';adobe-font-script:japanese;">
	<!ENTITY st1 "font-size:6px;font-family:'ArialMT';">
	<!-- White fill  -->
	<!ENTITY st2 "fill:#FFFFFF;stroke:#000000; stroke-width:1.41;stroke-linecap:round;stroke-linejoin:round;">
	<!-- Yellow fill  -->
	<!ENTITY st3 "fill:#FFFFCC;stroke:#FFFFCC; stroke-width:0.1;stroke-linecap:round;stroke-linejoin:round;">
	<!-- Gray fill  -->
	<!ENTITY st4 "fill:#CCCCCC;stroke:#CCCCCC; stroke-width:0.1;stroke-linecap:round;stroke-linejoin:round;">
	<!-- Light-blue fill -->
	<!ENTITY st5 "fill:#CCECF4;stroke:#000000; stroke-width:1.133;stroke-linecap:round;stroke-linejoin:round;">
	<!ENTITY st6 "fill:none;stroke-linecap:butt; stroke-linejoin:round;">
	<!ENTITY st7 "fill:none;stroke:#000000;stroke-linecap:round;stroke-linejoin:round;">
	<!ENTITY st8 "enable-background:new    ;">
	<!-- Black fill -->
	<!ENTITY st9 "fill:#000000;stroke:#000000; stroke-linecap:round;stroke-linejoin:round;">
	<!-- SRS note   -->
	<!ENTITY st10 "font-size:9px;font-family:'ArialMT';">
	<!ENTITY st11 "font-size:9px;font-family:'Svg Symbol';">
	<!ENTITY st12 "font-size:6px;font-family:'Svg Symbol';">
	<!ENTITY st13 "fill:none;stroke:#ff0000;stroke-linecap:round;stroke-linejoin:round;">
	<!-- Yellow fill  -->
	<!ENTITY st14 "fill:#FFFF00;stroke:#FFFF00; stroke-width:0.1;stroke-linecap:round;stroke-linejoin:round;">
	<!ENTITY st15 "font-size:6px;font-family:'MS-PGothic';adobe-font-script:japanese;">
	<!ENTITY st16 "1.00 0.00 0.00 1.00">
	<!ENTITY st17 "0.00 -1.00 1.00 0.00">
	<!ENTITY st18 "font-size:6px;font-family:'Arial';">
	<!ENTITY st19 "font-size:9px;font-family:'Arial';">
	<!ENTITY st20 "font-size:6px;font-family:'MS-PGothic','MS PGothic';adobe-font-script:japanese;">
	<!ENTITY st21 "font-size:7px;font-family:'MS-PGothic','MS PGothic';adobe-font-script:japanese;">
	<!ATTLIST svg
		xmlns:ewd CDATA #FIXED "http://shcl.co.jp/ewd"
		xmlns:a CDATA #FIXED "http://ns.adobe.com/AdobeSVGViewerExtensions/3.0/"
		ewd:ver CDATA #IMPLIED
	>
	<!ATTLIST a
		ewd:lineID CDATA #IMPLIED
		ewd:groupID CDATA #IMPLIED
		ewd:figtype CDATA #IMPLIED
		ewd:code CDATA #IMPLIED
		ewd:figID CDATA #IMPLIED
		ewd:pinNo CDATA #IMPLIED
		ewd:comment CDATA #IMPLIED >
	<!ATTLIST g
		ewd:lineID CDATA #IMPLIED
		ewd:groupID CDATA #IMPLIED
		ewd:figtype CDATA #IMPLIED
		ewd:code CDATA #IMPLIED
		ewd:figID CDATA #IMPLIED
		ewd:pinNo CDATA #IMPLIED
		ewd:comment CDATA #IMPLIED >
	<!ATTLIST text
		ewd:textID CDATA #IMPLIED >
	<!ATTLIST title
		ewd:textID CDATA #IMPLIED >
]>
<!-- Generator: Shintec Hozumi YS   -->
<svg onload="call_execInitLoadProc_svg('system')" style="overflow:visible;  enable-background:new 0 0 2065.609 710.000" viewBox="0 0 2065.609 710.000" height="710.000" width="2065.609" xml:space="preserve" ewd:ver="L2.1.2.9" xmlns="&ns_svg;" xmlns:a="http://ns.adobe.com/AdobeSVGViewerExtensions/3.0/" xmlns:ewd="http://shcl.co.jp/ewd" xmlns:xlink="&ns_xlink;"><script type="text/javascript" xlink:href="../../../../../system/js/ewd/fig/svgfig.js" xmlns:xlink="http://www.w3.org/1999/xlink" />
<g id="ewd_top"><a ewd:code="P4" ewd:figID="1" ewd:figtype="conn" style="cursor:pointer;"><path d=" M   705.38,   486.20  L   705.38,   520.20  L   739.38,   520.20  L   739.38,   486.20  L   705.38,   486.20 " style="fill:#CCECF4;stroke:#000000; stroke-width:1.133; stroke-linecap:round;stroke-linejoin:round; " /><title ewd:textID="11">Rear No. 1 Ultrasonic Sensor LH</title></a><a ewd:code="E1" ewd:figID="2" ewd:figtype="conn" style="cursor:pointer;"><path d=" M   543.91,    52.78  L   543.91,    95.27  L   620.40,    95.27  L   620.40,    52.78  L   543.91,    52.78 " style="fill:#CCECF4;stroke:#000000; stroke-width:1.133; stroke-linecap:round;stroke-linejoin:round; " /><title ewd:textID="5">Front No. 1 Ultrasonic Sensor RH</title></a><a ewd:code="F63" ewd:figID="3" ewd:figtype="conn" style="cursor:pointer;"><path d=" M  2005.66,   656.18  L  2005.66,   673.17  L  2022.66,   673.17  L  2022.66,   656.18  L  2005.66,   656.18 " style="fill:#CCECF4;stroke:#000000; stroke-width:1.133; stroke-linecap:round;stroke-linejoin:round; " /><title ewd:textID="6">Junction Connector</title></a><a ewd:code="A6" ewd:figID="4" ewd:figtype="conn" style="cursor:pointer;"><path d=" M  1580.74,   511.70  L  1580.74,   545.69  L  1835.69,   545.69  L  1835.69,   511.70  L  1580.74,   511.70 " style="fill:#CCECF4;stroke:#000000; stroke-width:1.133; stroke-linecap:round;stroke-linejoin:round; " /><title ewd:textID="13">Skid Control ECU with Actuator Assembly</title></a><a ewd:code="F64" ewd:figID="5" ewd:figtype="conn" style="cursor:pointer;"><path d=" M    50.99,   656.18  L    84.99,   656.18  L    84.99,   673.17  L    50.99,   673.17  L    50.99,   656.18 " style="fill:#CCECF4;stroke:#000000; stroke-width:1.133; stroke-linecap:round;stroke-linejoin:round; " /><title ewd:textID="6">Junction Connector</title></a><a ewd:code="P3" ewd:figID="6" ewd:figtype="conn" style="cursor:pointer;"><path d=" M   586.40,   486.20  L   586.40,   520.20  L   620.40,   520.20  L   620.40,   486.20  L   586.40,   486.20 " style="fill:#CCECF4;stroke:#000000; stroke-width:1.133; stroke-linecap:round;stroke-linejoin:round; " /><title ewd:textID="9">Rear No. 1 Ultrasonic Sensor Center LH</title></a><a ewd:code="B51" ewd:figID="7" ewd:figtype="conn" style="cursor:pointer;"><path d=" M  1070.82,   256.74  L  1070.82,   307.73  L  1138.81,   307.73  L  1138.81,   256.74  L  1070.82,   256.74 " style="fill:#CCECF4;stroke:#000000; stroke-width:1.133; stroke-linecap:round;stroke-linejoin:round; " /><title ewd:textID="8">Park/Neutral Position Switch</title></a><a ewd:code="FUSE6" ewd:figID="8" ewd:figtype="rb" style="cursor:pointer;"><path d=" M  1729.46,    78.27  L  1729.46,    35.78  L  1703.97,    35.78  L  1703.97,    78.27  L  1729.46,    78.27 " style="fill:#CCECF4;stroke:#000000; stroke-width:0; stroke-linecap:round;stroke-linejoin:round; " /></a><a ewd:code="F77" ewd:figID="9" ewd:figtype="conn" style="cursor:pointer;"><path d=" M   118.98,   248.24  L    42.49,   248.24  L    42.49,   333.23  L   118.98,   333.23  L   118.98,   248.24 " style="fill:#CCECF4;stroke:#000000; stroke-width:1.133; stroke-linecap:round;stroke-linejoin:round; " /><title ewd:textID="1">Back Sonar or Clearance Sonar Switch Assembly</title></a><a ewd:code="P1" ewd:figID="10" ewd:figtype="conn" style="cursor:pointer;"><path d=" M   322.95,   486.20  L   322.95,   520.20  L   356.94,   520.20  L   356.94,   486.20  L   322.95,   486.20 " style="fill:#CCECF4;stroke:#000000; stroke-width:1.133; stroke-linecap:round;stroke-linejoin:round; " /><title ewd:textID="12">Rear No. 1 Ultrasonic Sensor RH</title></a><a ewd:code="E2" ewd:figID="11" ewd:figtype="conn" style="cursor:pointer;"><path d=" M   662.89,    52.78  L   662.89,    95.27  L   739.38,    95.27  L   739.38,    52.78  L   662.89,    52.78 " style="fill:#CCECF4;stroke:#000000; stroke-width:1.133; stroke-linecap:round;stroke-linejoin:round; " /><title ewd:textID="4">Front No. 1 Ultrasonic Sensor LH</title></a><a ewd:code="F79" ewd:figID="12" ewd:figtype="conn" style="cursor:pointer;"><path d=" M   229.46,   188.75  L   229.46,   137.76  L   263.46,   137.76  L   263.46,   188.75  L   229.46,   188.75 " style="fill:#CCECF4;stroke:#000000; stroke-width:1.133; stroke-linecap:round;stroke-linejoin:round; " /><title ewd:textID="7">No. 1 Clearance Warning Buzzer</title></a><a ewd:code="F78" ewd:figID="13" ewd:figtype="conn" style="cursor:pointer;"><path d=" M   178.47,   256.74  L   178.47,   299.24  L  1011.33,   299.24  L  1011.33,   256.74  L   178.47,   256.74 " style="fill:#CCECF4;stroke:#000000; stroke-width:1.133; stroke-linecap:round;stroke-linejoin:round; " /><title ewd:textID="2">Clearance Warning ECU Assembly</title></a><a ewd:code="B48" ewd:figID="14" ewd:figtype="conn" style="cursor:pointer;"><path d=" M  1087.82,   163.26  L  1087.82,   180.26  L  1138.81,   180.26  L  1138.81,   163.26  L  1087.82,   163.26 " style="fill:#CCECF4;stroke:#000000; stroke-width:1.133; stroke-linecap:round;stroke-linejoin:round; " /><title ewd:textID="6">Junction Connector</title></a><a ewd:code="F55-A,F56-B" ewd:figID="15" ewd:figtype="conn" style="cursor:pointer;"><path d=" M  1937.68,   511.70  L  1937.68,   545.69  L  2022.66,   545.69  L  2022.66,   511.70  L  1937.68,   511.70 " style="fill:#CCECF4;stroke:#000000; stroke-width:1.133; stroke-linecap:round;stroke-linejoin:round; " /><title ewd:textID="6">Junction Connector</title></a><a ewd:code="F14" ewd:figID="16" ewd:figtype="conn" style="cursor:pointer;"><path d=" M  1274.79,   146.26  L  1274.79,   324.73  L  1971.67,   324.73  L  1971.67,   146.26  L  1274.79,   146.26 " style="fill:#CCECF4;stroke:#000000; stroke-width:1.133; stroke-linecap:round;stroke-linejoin:round; " /><title ewd:textID="3">Combination Meter Assembly</title></a><a ewd:code="F64" ewd:figID="17" ewd:figtype="conn" style="cursor:pointer;"><path d=" M  1878.19,   656.18  L  1878.19,   673.17  L  1895.18,   673.17  L  1895.18,   656.18  L  1878.19,   656.18 " style="fill:#CCECF4;stroke:#000000; stroke-width:1.133; stroke-linecap:round;stroke-linejoin:round; " /><title ewd:textID="6">Junction Connector</title></a><a ewd:code="P2" ewd:figID="18" ewd:figtype="conn" style="cursor:pointer;"><path d=" M   441.93,   486.20  L   441.93,   520.20  L   475.92,   520.20  L   475.92,   486.20  L   441.93,   486.20 " style="fill:#CCECF4;stroke:#000000; stroke-width:1.133; stroke-linecap:round;stroke-linejoin:round; " /><title ewd:textID="10">Rear No. 1 Ultrasonic Sensor Center RH</title></a><a ewd:code="4" ewd:figID="19" ewd:figtype="jb" style="cursor:pointer;"><path d=" M    84.99,   154.76  L    84.99,   205.75  L   110.48,   205.75  L   110.48,   154.76  L    84.99,   154.76  " style="&st4; " /></a><a ewd:code="5" ewd:figID="20" ewd:figtype="jb" style="cursor:pointer;"><path d=" M  1487.25,   579.69  L  1512.75,   579.69  L  1512.75,   528.70  L  1487.25,   528.70  L  1487.25,   579.69  " style="&st4; " /></a><a ewd:code="5" ewd:figID="21" ewd:figtype="jb" style="cursor:pointer;"><path d=" M   764.87,   409.72  L   790.37,   409.72  L   790.37,   358.73  L   764.87,   358.73  L   764.87,   409.72  " style="&st4; " /></a><a ewd:code="4" ewd:figID="22" ewd:figtype="jb" style="cursor:pointer;"><path d=" M    42.49,   443.71  L    67.99,   443.71  L    67.99,   494.70  L    42.49,   494.70  L    42.49,   443.71  " style="&st4; " /></a><a ewd:code="2" ewd:figID="23" ewd:figtype="jb" style="cursor:pointer;"><path d=" M  1189.80,    35.78  L  1189.80,   103.77  L  1257.79,   103.77  L  1257.79,    35.78  L  1189.80,    35.78  " style="&st4; " /></a><a ewd:code="2" ewd:figID="24" ewd:figtype="jb" style="cursor:pointer;"><path d=" M    84.99,    35.78  L   144.48,    35.78  L   144.48,   112.27  L    84.99,   112.27  L    84.99,    35.78  " style="&st4; " /></a><a ewd:code="5" ewd:figID="25" ewd:figtype="jb" style="cursor:pointer;"><path d=" M   220.96,   443.71  L   220.96,   494.70  L   246.46,   494.70  L   246.46,   443.71  L   220.96,   443.71  " style="&st4; " /></a><a ewd:code="4" ewd:figID="26" ewd:figtype="jb" style="cursor:pointer;"><path d=" M  1487.25,   443.71  L  1512.75,   443.71  L  1512.75,   392.72  L  1487.25,   392.72  L  1487.25,   443.71  " style="&st4; " /></a><a ewd:code="5" ewd:figID="27" ewd:figtype="jb" style="cursor:pointer;"><path d=" M   875.35,   154.76  L   875.35,   205.75  L   900.85,   205.75  L   900.85,   154.76  L   875.35,   154.76  " style="&st4; " /></a><a ewd:code="2" ewd:figID="28" ewd:figtype="jb" style="cursor:pointer;"><path d=" M  1878.19,    35.78  L  1937.68,    35.78  L  1937.68,   103.77  L  1878.19,   103.77  L  1878.19,    35.78  " style="&st4; " /></a><a ewd:code="4" ewd:figID="29" ewd:figtype="jb" style="cursor:pointer;"><path d=" M  1818.70,    52.78  L  1844.19,    52.78  L  1844.19,   103.77  L  1818.70,   103.77  L  1818.70,    52.78  " style="&st4; " /></a><a ewd:code="4" ewd:figID="30" ewd:figtype="jb" style="cursor:pointer;"><path d=" M  1189.80,   154.76  L  1189.80,   205.75  L  1215.30,   205.75  L  1215.30,   154.76  L  1189.80,   154.76  " style="&st4; " /></a><a ewd:code="4" ewd:figID="31" ewd:figtype="jb" style="cursor:pointer;"><path d=" M  1869.69,   503.20  L  1895.18,   503.20  L  1895.18,   554.19  L  1869.69,   554.19  L  1869.69,   503.20  " style="&st4; " /></a><a ewd:code="2" ewd:figID="32" ewd:figtype="jb" style="cursor:pointer;"><path d=" M  1776.20,    52.78  L  1801.70,    52.78  L  1801.70,   103.77  L  1776.20,   103.77  L  1776.20,    52.78  " style="&st4; " /></a><a ewd:code="5" ewd:figID="33" ewd:figtype="jb" style="cursor:pointer;"><path d=" M  1189.80,   256.74  L  1189.80,   307.73  L  1215.30,   307.73  L  1215.30,   256.74  L  1189.80,   256.74  " style="&st4; " /></a><a ewd:code="FUSE40" ewd:figID="34" ewd:figtype="fuse" style="cursor:pointer;"><path d=" M    89.24,    35.78  L    89.24,    78.27  L   114.73,    78.27  L   114.73,    35.78  L    89.24,    35.78 " style="&st7; stroke-width:0;" /></a><a ewd:code="FUSE39" ewd:figID="35" ewd:figtype="fuse" style="cursor:pointer;"><path d=" M  1194.05,    35.78  L  1194.05,    78.27  L  1219.55,    78.27  L  1219.55,    35.78  L  1194.05,    35.78 " style="&st7; stroke-width:0;" /></a><a ewd:code="FUSE34" ewd:figID="36" ewd:figtype="fuse" style="cursor:pointer;"><path d=" M  1907.93,    78.27  L  1907.93,    35.78  L  1882.44,    35.78  L  1882.44,    78.27  L  1907.93,    78.27 " style="&st7; stroke-width:0;" /></a><a ewd:code="FUSE6" ewd:figID="37" ewd:figtype="fuse" style="cursor:pointer;"><path d=" M  1729.46,    78.27  L  1729.46,    35.78  L  1703.97,    35.78  L  1703.97,    78.27  L  1729.46,    78.27 " style="&st7; stroke-width:0;" /></a><a ewd:lineID="1" style="cursor:pointer;"><path d=" M    59.49,   494.70  L    59.49,   656.18  " style="stroke:#000000;stroke-width: 5.10 ;&st6;" /><path d=" M    59.49,   494.70  L    59.49,   656.18  " style="stroke:#FFFFFF;stroke-width: 4.53 ;&st6;" /><path d=" M    59.49,   494.70  L    59.49,   656.18  " style="stroke:#000000;stroke-width: 1.13 ;&st6;" /></a><a ewd:lineID="2" style="cursor:pointer;"><path d=" M    59.49,   333.23  L    59.49,   443.71  " style="stroke:#000000;stroke-width: 5.10 ;&st6;" /><path d=" M    59.49,   333.23  L    59.49,   443.71  " style="stroke:#FFFFFF;stroke-width: 4.53 ;&st6;" /><path d=" M    59.49,   333.23  L    59.49,   443.71  " style="stroke:#000000;stroke-width: 1.13 ;&st6;" /></a><a ewd:lineID="3" style="cursor:pointer;"><path d=" M   237.96,   494.70  L   237.96,   664.67  L    84.99,   664.67  " style="stroke:#000000;stroke-width: 5.10 ;&st6;" /><path d=" M   237.96,   494.70  L   237.96,   664.67  L    84.99,   664.67  " style="stroke:#FFFFFF;stroke-width: 4.53 ;&st6;" /><path d=" M   237.96,   494.70  L   237.96,   664.67  L    84.99,   664.67  " style="stroke:#000000;stroke-width: 1.13 ;&st6;" /></a><a ewd:lineID="4" style="cursor:pointer;"><path d=" M   101.98,   333.23  L   101.98,   409.72  L   195.47,   409.72  L   195.47,   299.24  " style="stroke:#00A0C6;stroke-width: 5.10 ;&st6;" /></a><a ewd:lineID="5" style="cursor:pointer;"><path d=" M   101.98,   205.75  L   101.98,   248.24  " style="stroke:#00A0C6;stroke-width: 5.10 ;&st6;" /></a><a ewd:lineID="6" style="cursor:pointer;"><path d=" M   101.98,   154.76  L   101.98,   112.27  " style="stroke:#00A0C6;stroke-width: 5.10 ;&st6;" /></a><a ewd:lineID="7" style="cursor:pointer;"><path d=" M   195.47,   256.74  L   195.47,   103.77  L   254.96,   103.77  L   254.96,   137.76  " style="stroke:#F668B2;stroke-width: 5.10 ;&st6;" /></a><a ewd:lineID="8" style="cursor:pointer;"><path d=" M   237.96,   299.24  L   237.96,   443.71  " style="stroke:#000000;stroke-width: 5.10 ;&st6;" /><path d=" M   237.96,   299.24  L   237.96,   443.71  " style="stroke:#FFFFFF;stroke-width: 4.53 ;&st6;" /><path d=" M   237.96,   299.24  L   237.96,   443.71  " style="stroke:#000000;stroke-width: 1.13 ;&st6;" /></a><a ewd:lineID="9" style="cursor:pointer;"><path d=" M   254.96,   188.75  L   254.96,   256.74  " style="stroke:#00A0C6;stroke-width: 5.10 ;&st6;" /></a><a ewd:lineID="10" style="cursor:pointer;"><path d=" M   288.95,   426.71  L   288.95,   554.19  L   339.94,   554.19  L   339.94,   520.20  " style="stroke:#FF0000;stroke-width: 5.10 ;&st6;" /></a><a ewd:lineID="11" style="cursor:pointer;"><path d=" M   288.95,   373.46  L   288.95,   411.98  " style="stroke:#FF0000;stroke-width: 5.10 ;&st6;" /></a><a ewd:lineID="12" style="cursor:pointer;"><path d=" M   288.95,   299.24  L   288.95,   358.73  " style="stroke:#FF0000;stroke-width: 5.10 ;&st6;" /></a><a ewd:lineID="13" style="cursor:pointer;"> d=" M   339.94,   486.20  L   339.94,   426.71 
	
		<path d=" M   339.94,   486.20  L   339.94,   426.71  " style="stroke:#000000;stroke-width: 5.10 ;&st6;" /><path d=" M   339.94,   486.20  L   339.94,   426.71  " style="stroke:#FFFFFF;stroke-width: 4.53 ;&st6;" /></a><a ewd:lineID="14" style="cursor:pointer;"> d=" M   339.94,   373.74  L   339.94,   411.70 
	
		<path d=" M   339.94,   373.74  L   339.94,   411.70  " style="stroke:#000000;stroke-width: 5.10 ;&st6;" /><path d=" M   339.94,   373.74  L   339.94,   411.70  " style="stroke:#FFFFFF;stroke-width: 4.53 ;&st6;" /></a><a ewd:lineID="15" style="cursor:pointer;"> d=" M   339.94,   299.24  L   339.94,   358.73 
	
		<path d=" M   339.94,   299.24  L   339.94,   358.73  " style="stroke:#000000;stroke-width: 5.10 ;&st6;" /><path d=" M   339.94,   299.24  L   339.94,   358.73  " style="stroke:#FFFFFF;stroke-width: 4.53 ;&st6;" /></a><a ewd:lineID="16" style="cursor:pointer;"><path d=" M   407.93,   426.71  L   407.93,   554.19  L   458.92,   554.19  L   458.92,   520.20  " style="stroke:#FFE600;stroke-width: 5.10 ;&st6;" /></a><a ewd:lineID="17" style="cursor:pointer;"><path d=" M   407.93,   373.46  L   407.93,   411.98  " style="stroke:#FFE600;stroke-width: 5.10 ;&st6;" /></a><a ewd:lineID="18" style="cursor:pointer;"><path d=" M   407.93,   299.24  L   407.93,   358.73  " style="stroke:#FFE600;stroke-width: 5.10 ;&st6;" /></a><a ewd:lineID="19" style="cursor:pointer;"><path d=" M   458.92,   486.20  L   458.92,   426.71  " style="stroke:#000000;stroke-width: 5.10 ;&st6;" /></a><a ewd:lineID="20" style="cursor:pointer;"><path d=" M   458.92,   373.46  L   458.92,   411.98  " style="stroke:#000000;stroke-width: 5.10 ;&st6;" /></a><a ewd:lineID="21" style="cursor:pointer;"><path d=" M   458.92,   299.24  L   458.92,   358.73  " style="stroke:#000000;stroke-width: 5.10 ;&st6;" /></a><a ewd:lineID="22" style="cursor:pointer;"><path d=" M   552.41,   426.71  L   552.41,   554.19  L   603.40,   554.19  L   603.40,   520.20  " style="stroke:#7FC97F;stroke-width: 5.10 ;&st6;" /></a><a ewd:lineID="23" style="cursor:pointer;"><path d=" M   552.41,   373.46  L   552.41,   411.98  " style="stroke:#7FC97F;stroke-width: 5.10 ;&st6;" /></a><a ewd:lineID="24" style="cursor:pointer;"><path d=" M   552.41,   299.24  L   552.41,   358.73  " style="stroke:#7FC97F;stroke-width: 5.10 ;&st6;" /></a><a ewd:lineID="25" style="cursor:pointer;"><path d=" M   560.91,   256.74  L   560.91,   205.75  " style="stroke:#00A0C6;stroke-width: 5.10 ;&st6;" /></a><a ewd:lineID="26" style="cursor:pointer;"><path d=" M   560.91,   154.76  L   560.91,   191.02  " style="stroke:#00A0C6;stroke-width: 5.10 ;&st6;" /></a><a ewd:lineID="27" style="cursor:pointer;"><path d=" M   560.91,   140.03  L   560.91,    95.27  " style="stroke:#00A0C6;stroke-width: 5.10 ;&st6;" /></a><a ewd:lineID="28" style="cursor:pointer;"><path d=" M   603.40,   486.20  L   603.40,   426.71  " style="stroke:#00A0C6;stroke-width: 5.10 ;&st6;" /></a><a ewd:lineID="29" style="cursor:pointer;"><path d=" M   603.40,   373.46  L   603.40,   411.98  " style="stroke:#00A0C6;stroke-width: 5.10 ;&st6;" /></a><a ewd:lineID="30" style="cursor:pointer;"><path d=" M   603.40,   299.24  L   603.40,   358.73  " style="stroke:#00A0C6;stroke-width: 5.10 ;&st6;" /></a><a ewd:lineID="31" style="cursor:pointer;"><path d=" M   603.40,   256.74  L   603.40,   205.75  " style="stroke:#008837;stroke-width: 5.10 ;&st6;" /></a><a ewd:lineID="32" style="cursor:pointer;"><path d=" M   603.40,   154.76  L   603.40,   191.02  " style="stroke:#008837;stroke-width: 5.10 ;&st6;" /></a><a ewd:lineID="33" style="cursor:pointer;"><path d=" M   603.40,   140.03  L   603.40,    95.27  " style="stroke:#008837;stroke-width: 5.10 ;&st6;" /></a><a ewd:lineID="34" style="cursor:pointer;"><path d=" M   671.39,   426.71  L   671.39,   554.19  L   722.38,   554.19  L   722.38,   520.20  " style="stroke:#FF0000;stroke-width: 5.10 ;&st6;" /></a><a ewd:lineID="35" style="cursor:pointer;"><path d=" M   671.39,   373.46  L   671.39,   411.98  " style="stroke:#FF0000;stroke-width: 5.10 ;&st6;" /></a><a ewd:lineID="36" style="cursor:pointer;"><path d=" M   671.39,   299.24  L   671.39,   358.73  " style="stroke:#FF0000;stroke-width: 5.10 ;&st6;" /></a><a ewd:lineID="37" style="cursor:pointer;"><path d=" M   679.89,   256.74  L   679.89,   205.75  " style="stroke:#000000;stroke-width: 5.10 ;&st6;" /></a><a ewd:lineID="38" style="cursor:pointer;"><path d=" M   679.89,   154.76  L   679.89,   191.02  " style="stroke:#000000;stroke-width: 5.10 ;&st6;" /></a><a ewd:lineID="39" style="cursor:pointer;"><path d=" M   679.89,   140.03  L   679.89,    95.27  " style="stroke:#000000;stroke-width: 5.10 ;&st6;" /></a><a ewd:lineID="40" style="cursor:pointer;"><path d=" M   722.38,   486.20  L   722.38,   426.71  " style="stroke:#008837;stroke-width: 5.10 ;&st6;" /></a><a ewd:lineID="41" style="cursor:pointer;"><path d=" M   722.38,   373.46  L   722.38,   411.98  " style="stroke:#008837;stroke-width: 5.10 ;&st6;" /></a><a ewd:lineID="42" style="cursor:pointer;"><path d=" M   722.38,   299.24  L   722.38,   358.73  " style="stroke:#008837;stroke-width: 5.10 ;&st6;" /></a><a ewd:lineID="43" style="cursor:pointer;"> d=" M   722.38,   256.74  L   722.38,   205.75 
	
		<path d=" M   722.38,   256.74  L   722.38,   205.75  " style="stroke:#000000;stroke-width: 5.10 ;&st6;" /><path d=" M   722.38,   256.74  L   722.38,   205.75  " style="stroke:#FFFFFF;stroke-width: 4.53 ;&st6;" /></a><a ewd:lineID="44" style="cursor:pointer;"> d=" M   722.38,   154.76  L   722.38,   190.74 
	
		<path d=" M   722.38,   154.76  L   722.38,   190.74  " style="stroke:#000000;stroke-width: 5.10 ;&st6;" /><path d=" M   722.38,   154.76  L   722.38,   190.74  " style="stroke:#FFFFFF;stroke-width: 4.53 ;&st6;" /></a><a ewd:lineID="45" style="cursor:pointer;"> d=" M   722.38,   139.75  L   722.38,    95.27 
	
		<path d=" M   722.38,   139.75  L   722.38,    95.27  " style="stroke:#000000;stroke-width: 5.10 ;&st6;" /><path d=" M   722.38,   139.75  L   722.38,    95.27  " style="stroke:#FFFFFF;stroke-width: 4.53 ;&st6;" /></a><a ewd:lineID="46" style="cursor:pointer;"><path d=" M   781.87,   409.72  L   781.87,   630.68  L  1504.25,   630.68  L  1504.25,   579.69  " style="stroke:#99D9E8;stroke-width: 5.10 ;&st6;" /></a><a ewd:lineID="47" style="cursor:pointer;"><path d=" M   781.87,   299.24  L   781.87,   358.73  " style="stroke:#99D9E8;stroke-width: 5.10 ;&st6;" /></a><a ewd:lineID="48" style="cursor:pointer;"><path d=" M   824.36,   299.24  L   824.36,   562.69  L  1461.76,   562.69  L  1461.76,   324.73  " style="stroke:#FFE600;stroke-width: 5.10 ;&st6;" /></a><a ewd:lineID="49" style="cursor:pointer;"><path d=" M   858.36,   299.24  L   858.36,   545.69  L  1427.76,   545.69  L  1427.76,   324.73  " style="stroke:#999999;stroke-width: 5.10 ;&st6;" /></a><a ewd:lineID="50" style="cursor:pointer;"><path d=" M   892.35,   299.24  L   892.35,   528.70  L  1393.77,   528.70  L  1393.77,   324.73  " style="stroke:#99D9E8;stroke-width: 5.10 ;&st6;" /></a><a ewd:lineID="51" style="cursor:pointer;"><path d=" M   892.35,   205.75  L   892.35,   256.74  " style="stroke:#FF0000;stroke-width: 5.10 ;&st6;" /></a><a ewd:lineID="52" style="cursor:pointer;"><path d=" M   892.35,    93.00  L   892.35,   154.76  " style="stroke:#FF0000;stroke-width: 5.10 ;&st6;" /></a><a ewd:lineID="53" style="cursor:pointer;"><path d=" M   892.35,    78.27  L   892.35,    52.78  L  1130.31,    52.78  L  1130.31,   163.26  " style="stroke:#FF0000;stroke-width: 5.10 ;&st6;" /></a><a ewd:lineID="54" style="cursor:pointer;"><path d=" M   926.35,   299.24  L   926.35,   511.70  L  1359.77,   511.70  L  1359.77,   324.73  " style="stroke:#000000;stroke-width: 5.10 ;&st6;" /></a><a ewd:lineID="55" style="cursor:pointer;"><path d=" M   960.34,   299.24  L   960.34,   494.70  L  1325.78,   494.70  L  1325.78,   324.73  " style="stroke:#F668B2;stroke-width: 5.10 ;&st6;" /></a><a ewd:lineID="56" style="cursor:pointer;"><path d=" M   960.34,   203.48  L   960.34,   256.74  " style="stroke:#00A0C6;stroke-width: 5.10 ;&st6;" /></a><a ewd:lineID="57" style="cursor:pointer;"><path d=" M   960.34,   188.75  L   960.34,    69.77  L  1096.32,    69.77  L  1096.32,   163.26  " style="stroke:#00A0C6;stroke-width: 5.10 ;&st6;" /></a><a ewd:lineID="58" style="cursor:pointer;"><path d=" M   994.33,   299.24  L   994.33,   477.71  L  1291.78,   477.71  L  1291.78,   324.73  " style="stroke:#7FC97F;stroke-width: 5.10 ;&st6;" /></a><a ewd:lineID="59" style="cursor:pointer;"><path d=" M  1096.32,   247.68  L  1096.32,   180.26  " style="stroke:#00A0C6;stroke-width: 5.10 ;&st6;" /></a><a ewd:lineID="60" style="cursor:pointer;"><path d=" M  1113.31,   381.95  L  1113.31,   435.21  L  1206.80,   435.21  L  1206.80,   307.73  " style="stroke:#008837;stroke-width: 5.10 ;&st6;" /></a><a ewd:lineID="61" style="cursor:pointer;"><path d=" M  1113.31,   367.22  L  1113.31,   316.80  " style="stroke:#008837;stroke-width: 5.10 ;&st6;" /></a><a ewd:lineID="62" style="cursor:pointer;"><path d=" M  1130.31,   247.68  L  1130.31,   180.26  " style="stroke:#FF0000;stroke-width: 5.10 ;&st6;" /></a><a ewd:lineID="63" style="cursor:pointer;"><path d=" M  1206.80,   256.74  L  1206.80,   205.75  " style="stroke:#008837;stroke-width: 5.10 ;&st6;" /></a><a ewd:lineID="64" style="cursor:pointer;"><path d=" M  1206.80,   103.77  L  1206.80,   154.76  " style="stroke:#008837;stroke-width: 5.10 ;&st6;" /></a><a ewd:lineID="65" style="cursor:pointer;"><path d=" M  1504.25,   443.71  L  1504.25,   528.70  " style="stroke:#99D9E8;stroke-width: 5.10 ;&st6;" /></a><a ewd:lineID="66" style="cursor:pointer;"><path d=" M  1504.25,   324.73  L  1504.25,   392.72  " style="stroke:#99D9E8;stroke-width: 5.10 ;&st6;" /></a><a ewd:lineID="67" style="cursor:pointer;"><path d=" M  1597.73,   390.45  L  1597.73,   502.63  " style="stroke:#008837;stroke-width: 5.10 ;&st6;" /><path d=" M  1597.73,   390.45  L  1597.73,   502.63  " style="stroke:#FFFFFF;stroke-width: 1.13 ;&st6;" /></a><a ewd:lineID="68" style="cursor:pointer;"><path d=" M  1597.73,   324.73  L  1597.73,   375.72  " style="stroke:#008837;stroke-width: 5.10 ;&st6;" /></a><a ewd:lineID="69" style="cursor:pointer;"><path d=" M  1631.73,   502.63  L  1631.73,   460.71  " style="stroke:#FF0000;stroke-width: 5.10 ;&st6;" /></a><a ewd:lineID="70" style="cursor:pointer;"><path d=" M  1657.22,   502.63  L  1657.22,   460.71  " style="stroke:#008837;stroke-width: 5.10 ;&st6;" /></a><a ewd:lineID="71" style="cursor:pointer;"><path d=" M  1682.72,   502.63  L  1682.72,   460.71  " style="stroke:#000000;stroke-width: 5.10 ;&st6;" /></a><a ewd:lineID="72" style="cursor:pointer;"> d=" M  1708.21,   502.63  L  1708.21,   460.71 
	
		<path d=" M  1708.21,   502.63  L  1708.21,   460.71  " style="stroke:#000000;stroke-width: 5.10 ;&st6;" /><path d=" M  1708.21,   502.63  L  1708.21,   460.71  " style="stroke:#FFFFFF;stroke-width: 4.53 ;&st6;" /></a><a ewd:lineID="73" style="cursor:pointer;"><path d=" M  1716.71,   103.77  L  1716.71,   129.26  L  1793.20,   129.26  L  1793.20,   103.77  " style="stroke:#00A0C6;stroke-width: 5.10 ;&st6;" /></a><a ewd:lineID="74" style="cursor:pointer;"><path d=" M  1742.21,   502.63  L  1742.21,   460.71  " style="stroke:#FF0000;stroke-width: 5.10 ;&st6;" /></a><a ewd:lineID="75" style="cursor:pointer;"><path d=" M  1767.70,   502.63  L  1767.70,   460.71  " style="stroke:#008837;stroke-width: 5.10 ;&st6;" /></a><a ewd:lineID="76" style="cursor:pointer;"><path d=" M  1793.20,   502.63  L  1793.20,   460.71  " style="stroke:#000000;stroke-width: 5.10 ;&st6;" /></a><a ewd:lineID="77" style="cursor:pointer;"><path d=" M  1835.69,    52.78  L  1835.69,    27.28  L  1793.20,    27.28  L  1793.20,    52.78  " style="stroke:#00A0C6;stroke-width: 5.10 ;&st6;" /></a><a ewd:lineID="78" style="cursor:pointer;"> d=" M  1818.70,   502.63  L  1818.70,   460.71 
		<path d=" M  1818.70,   502.63  L  1818.70,   460.71  " style="stroke:#000000;stroke-width: 5.10 ;&st6;" /><path d=" M  1818.70,   502.63  L  1818.70,   460.71  " style="stroke:#FFFFFF;stroke-width: 4.53 ;&st6;" /></a><a ewd:lineID="79" style="cursor:pointer;"><path d=" M  1835.69,   103.77  L  1835.69,   146.26  " style="stroke:#00A0C6;stroke-width: 5.10 ;&st6;" /></a><a ewd:lineID="80" style="cursor:pointer;"><path d=" M  1886.68,   554.19  L  1886.68,   656.18  " style="stroke:#000000;stroke-width: 5.10 ;&st6;" /><path d=" M  1886.68,   554.19  L  1886.68,   656.18  " style="stroke:#FFFFFF;stroke-width: 4.53 ;&st6;" /><path d=" M  1886.68,   554.19  L  1886.68,   656.18  " style="stroke:#000000;stroke-width: 1.13 ;&st6;" /></a><a ewd:lineID="81" style="cursor:pointer;"><path d=" M  1886.68,   324.73  L  1886.68,   503.20  " style="stroke:#000000;stroke-width: 5.10 ;&st6;" /><path d=" M  1886.68,   324.73  L  1886.68,   503.20  " style="stroke:#FFFFFF;stroke-width: 4.53 ;&st6;" /><path d=" M  1886.68,   324.73  L  1886.68,   503.20  " style="stroke:#000000;stroke-width: 1.13 ;&st6;" /></a><a ewd:lineID="82" style="cursor:pointer;"><path d=" M  1895.18,   146.26  L  1895.18,   103.77  " style="stroke:#FF0000;stroke-width: 5.10 ;&st6;" /></a><a ewd:lineID="83" style="cursor:pointer;"><path d=" M  1946.17,   324.73  L  1946.17,   502.63  " style="stroke:#000000;stroke-width: 5.10 ;&st6;" /><path d=" M  1946.17,   324.73  L  1946.17,   502.63  " style="stroke:#FFFFFF;stroke-width: 4.53 ;&st6;" /><path d=" M  1946.17,   324.73  L  1946.17,   502.63  " style="stroke:#000000;stroke-width: 1.13 ;&st6;" /></a><a ewd:lineID="84" style="cursor:pointer;"><path d=" M  1980.17,   502.63  L  1980.17,   486.20  L  2014.16,   486.20  L  2014.16,   502.63  " style="stroke:#000000;stroke-width: 5.10 ;&st6;" /><path d=" M  1980.17,   502.63  L  1980.17,   486.20  L  2014.16,   486.20  L  2014.16,   502.63  " style="stroke:#FFFFFF;stroke-width: 4.53 ;&st6;" /><path d=" M  1980.17,   502.63  L  1980.17,   486.20  L  2014.16,   486.20  L  2014.16,   502.63  " style="stroke:#000000;stroke-width: 1.13 ;&st6;" /></a><a ewd:lineID="85" style="cursor:pointer;"><path d=" M  2014.16,   554.76  L  2014.16,   656.18  " style="stroke:#000000;stroke-width: 5.10 ;&st6;" /><path d=" M  2014.16,   554.76  L  2014.16,   656.18  " style="stroke:#FFFFFF;stroke-width: 4.53 ;&st6;" /><path d=" M  2014.16,   554.76  L  2014.16,   656.18  " style="stroke:#000000;stroke-width: 1.13 ;&st6;" /></a><a ewd:code="FO1" ewd:figID="38" ewd:figtype="w2w" ewd:pinNo="51" style="cursor:pointer;"><path d=" M   297.45,   358.73  L   280.45,   358.73  L   280.45,   367.22  L   297.45,   367.22  L   297.45,   358.73 " style="&st2;" /><text style="&st8;" transform="matrix(&st16;  283.35  365.09 )"><tspan style="&st18;" x="0" y="0">FO1</tspan></text></a><a ewd:code="PO1" ewd:figID="39" ewd:figtype="w2w" ewd:pinNo="3" style="cursor:pointer;"><path d=" M   730.88,   418.22  L   713.88,   418.22  L   713.88,   426.71  L   730.88,   426.71  L   730.88,   418.22 " style="&st2;" /><text style="&st8;" transform="matrix(&st16;  716.89  424.58 )"><tspan style="&st18;" x="0" y="0">PO1</tspan></text></a><a ewd:code="BF2" ewd:figID="40" ewd:figtype="w2w" ewd:pinNo="19" style="cursor:pointer;"><path d=" M   900.85,    78.27  L   883.85,    78.27  L   883.85,    86.77  L   900.85,    86.77  L   900.85,    78.27 " style="&st2;" /><text style="&st8;" transform="matrix(&st16;  887.16  84.64 )"><tspan style="&st18;" x="0" y="0">BF2</tspan></text></a><a ewd:code="BF2" ewd:figID="41" ewd:figtype="w2w" ewd:pinNo="21" style="cursor:pointer;"><path d=" M  1121.81,   367.22  L  1104.82,   367.22  L  1104.82,   375.72  L  1121.81,   375.72  L  1121.81,   367.22 " style="&st2;" /><text style="&st8;" transform="matrix(&st16;  1108.12  373.59 )"><tspan style="&st18;" x="0" y="0">BF2</tspan></text></a><a ewd:code="FA1" ewd:figID="42" ewd:figtype="w2w" ewd:pinNo="39" style="cursor:pointer;"><path d=" M   569.40,   197.25  L   552.41,   197.25  L   552.41,   205.75  L   569.40,   205.75  L   569.40,   197.25 " style="&st2;" /><text style="&st8;" transform="matrix(&st16;  555.6  203.62 )"><tspan style="&st18;" x="0" y="0">FA1</tspan></text></a><a ewd:code="PO1" ewd:figID="43" ewd:figtype="w2w" ewd:pinNo="2" style="cursor:pointer;"><path d=" M   297.45,   418.22  L   280.45,   418.22  L   280.45,   426.71  L   297.45,   426.71  L   297.45,   418.22 " style="&st2;" /><text style="&st8;" transform="matrix(&st16;  283.46  424.58 )"><tspan style="&st18;" x="0" y="0">PO1</tspan></text></a><a ewd:code="FO1" ewd:figID="44" ewd:figtype="w2w" ewd:pinNo="46" style="cursor:pointer;"><path d=" M   730.88,   358.73  L   713.88,   358.73  L   713.88,   367.22  L   730.88,   367.22  L   730.88,   358.73 " style="&st2;" /><text style="&st8;" transform="matrix(&st16;  716.77  365.09 )"><tspan style="&st18;" x="0" y="0">FO1</tspan></text></a><a ewd:code="FA1" ewd:figID="45" ewd:figtype="w2w" ewd:pinNo="40" style="cursor:pointer;"><path d=" M   611.90,   197.25  L   594.90,   197.25  L   594.90,   205.75  L   611.90,   205.75  L   611.90,   197.25 " style="&st2;" /><text style="&st8;" transform="matrix(&st16;  598.09  203.62 )"><tspan style="&st18;" x="0" y="0">FA1</tspan></text></a><a ewd:code="PO1" ewd:figID="46" ewd:figtype="w2w" ewd:pinNo="7" style="cursor:pointer;"><path d=" M   611.90,   418.22  L   594.90,   418.22  L   594.90,   426.71  L   611.90,   426.71  L   611.90,   418.22 " style="&st2;" /><text style="&st8;" transform="matrix(&st16;  597.91  424.58 )"><tspan style="&st18;" x="0" y="0">PO1</tspan></text></a><a ewd:code="PO1" ewd:figID="47" ewd:figtype="w2w" ewd:pinNo="1" style="cursor:pointer;"><path d=" M   348.44,   418.22  L   331.44,   418.22  L   331.44,   426.71  L   348.44,   426.71  L   348.44,   418.22 " style="&st2;" /><text style="&st8;" transform="matrix(&st16;  334.45  424.58 )"><tspan style="&st18;" x="0" y="0">PO1</tspan></text></a><a ewd:code="PO1" ewd:figID="48" ewd:figtype="w2w" ewd:pinNo="5" style="cursor:pointer;"><path d=" M   467.42,   418.22  L   450.42,   418.22  L   450.42,   426.71  L   467.42,   426.71  L   467.42,   418.22 " style="&st2;" /><text style="&st8;" transform="matrix(&st16;  453.43  424.58 )"><tspan style="&st18;" x="0" y="0">PO1</tspan></text></a><a ewd:code="PO1" ewd:figID="49" ewd:figtype="w2w" ewd:pinNo="6" style="cursor:pointer;"><path d=" M   416.43,   418.22  L   399.43,   418.22  L   399.43,   426.71  L   416.43,   426.71  L   416.43,   418.22 " style="&st2;" /><text style="&st8;" transform="matrix(&st16;  402.44  424.58 )"><tspan style="&st18;" x="0" y="0">PO1</tspan></text></a><a ewd:code="FO1" ewd:figID="50" ewd:figtype="w2w" ewd:pinNo="48" style="cursor:pointer;"><path d=" M   611.90,   358.73  L   594.90,   358.73  L   594.90,   367.22  L   611.90,   367.22  L   611.90,   358.73 " style="&st2;" /><text style="&st8;" transform="matrix(&st16;  597.79  365.09 )"><tspan style="&st18;" x="0" y="0">FO1</tspan></text></a><a ewd:code="FO1" ewd:figID="51" ewd:figtype="w2w" ewd:pinNo="50" style="cursor:pointer;"><path d=" M   467.42,   358.73  L   450.42,   358.73  L   450.42,   367.22  L   467.42,   367.22  L   467.42,   358.73 " style="&st2;" /><text style="&st8;" transform="matrix(&st16;  453.32  365.09 )"><tspan style="&st18;" x="0" y="0">FO1</tspan></text></a><a ewd:code="FO1" ewd:figID="52" ewd:figtype="w2w" ewd:pinNo="52" style="cursor:pointer;"><path d=" M   348.44,   358.73  L   331.44,   358.73  L   331.44,   367.22  L   348.44,   367.22  L   348.44,   358.73 " style="&st2;" /><text style="&st8;" transform="matrix(&st16;  334.34  365.09 )"><tspan style="&st18;" x="0" y="0">FO1</tspan></text></a><a ewd:code="FO1" ewd:figID="53" ewd:figtype="w2w" ewd:pinNo="49" style="cursor:pointer;"><path d=" M   416.43,   358.73  L   399.43,   358.73  L   399.43,   367.22  L   416.43,   367.22  L   416.43,   358.73 " style="&st2;" /><text style="&st8;" transform="matrix(&st16;  402.33  365.09 )"><tspan style="&st18;" x="0" y="0">FO1</tspan></text></a><a ewd:code="PO1" ewd:figID="54" ewd:figtype="w2w" ewd:pinNo="8" style="cursor:pointer;"><path d=" M   560.91,   418.22  L   543.91,   418.22  L   543.91,   426.71  L   560.91,   426.71  L   560.91,   418.22 " style="&st2;" /><text style="&st8;" transform="matrix(&st16;  546.91  424.58 )"><tspan style="&st18;" x="0" y="0">PO1</tspan></text></a><a ewd:code="FO1" ewd:figID="55" ewd:figtype="w2w" ewd:pinNo="47" style="cursor:pointer;"><path d=" M   560.91,   358.73  L   543.91,   358.73  L   543.91,   367.22  L   560.91,   367.22  L   560.91,   358.73 " style="&st2;" /><text style="&st8;" transform="matrix(&st16;  546.8  365.09 )"><tspan style="&st18;" x="0" y="0">FO1</tspan></text></a><a ewd:code="PO1" ewd:figID="56" ewd:figtype="w2w" ewd:pinNo="4" style="cursor:pointer;"><path d=" M   679.89,   418.22  L   662.89,   418.22  L   662.89,   426.71  L   679.89,   426.71  L   679.89,   418.22 " style="&st2;" /><text style="&st8;" transform="matrix(&st16;  665.89  424.58 )"><tspan style="&st18;" x="0" y="0">PO1</tspan></text></a><a ewd:code="FO1" ewd:figID="57" ewd:figtype="w2w" ewd:pinNo="45" style="cursor:pointer;"><path d=" M   679.89,   358.73  L   662.89,   358.73  L   662.89,   367.22  L   679.89,   367.22  L   679.89,   358.73 " style="&st2;" /><text style="&st8;" transform="matrix(&st16;  665.78  365.09 )"><tspan style="&st18;" x="0" y="0">FO1</tspan></text></a><a ewd:code="AE1" ewd:figID="58" ewd:figtype="w2w" ewd:pinNo="2" style="cursor:pointer;"><path d=" M   569.40,   146.26  L   552.41,   146.26  L   552.41,   154.76  L   569.40,   154.76  L   569.40,   146.26 " style="&st2;" /><text style="&st8;" transform="matrix(&st16;  555.6  152.63 )"><tspan style="&st18;" x="0" y="0">AE1</tspan></text></a><a ewd:code="AE1" ewd:figID="59" ewd:figtype="w2w" ewd:pinNo="1" style="cursor:pointer;"><path d=" M   611.90,   146.26  L   594.90,   146.26  L   594.90,   154.76  L   611.90,   154.76  L   611.90,   146.26 " style="&st2;" /><text style="&st8;" transform="matrix(&st16;  598.09  152.63 )"><tspan style="&st18;" x="0" y="0">AE1</tspan></text></a><a ewd:code="FA1" ewd:figID="60" ewd:figtype="w2w" ewd:pinNo="63" style="cursor:pointer;"><path d=" M   688.38,   197.25  L   671.39,   197.25  L   671.39,   205.75  L   688.38,   205.75  L   688.38,   197.25 " style="&st2;" /><text style="&st8;" transform="matrix(&st16;  674.58  203.62 )"><tspan style="&st18;" x="0" y="0">FA1</tspan></text></a><a ewd:code="FA1" ewd:figID="61" ewd:figtype="w2w" ewd:pinNo="64" style="cursor:pointer;"><path d=" M   730.88,   197.25  L   713.88,   197.25  L   713.88,   205.75  L   730.88,   205.75  L   730.88,   197.25 " style="&st2;" /><text style="&st8;" transform="matrix(&st16;  717.07  203.62 )"><tspan style="&st18;" x="0" y="0">FA1</tspan></text></a><a ewd:code="AE1" ewd:figID="62" ewd:figtype="w2w" ewd:pinNo="4" style="cursor:pointer;"><path d=" M   688.38,   146.26  L   671.39,   146.26  L   671.39,   154.76  L   688.38,   154.76  L   688.38,   146.26 " style="&st2;" /><text style="&st8;" transform="matrix(&st16;  674.58  152.63 )"><tspan style="&st18;" x="0" y="0">AE1</tspan></text></a><a ewd:code="AE1" ewd:figID="63" ewd:figtype="w2w" ewd:pinNo="3" style="cursor:pointer;"><path d=" M   730.88,   146.26  L   713.88,   146.26  L   713.88,   154.76  L   730.88,   154.76  L   730.88,   146.26 " style="&st2;" /><text style="&st8;" transform="matrix(&st16;  717.07  152.63 )"><tspan style="&st18;" x="0" y="0">AE1</tspan></text></a><a ewd:code="BF1" ewd:figID="64" ewd:figtype="w2w" ewd:pinNo="6" style="cursor:pointer;"><path d=" M   968.84,   188.75  L   951.84,   188.75  L   951.84,   197.25  L   968.84,   197.25  L   968.84,   188.75 " style="&st2;" /><text style="&st8;" transform="matrix(&st16;  955.15  195.12 )"><tspan style="&st18;" x="0" y="0">BF1</tspan></text></a><a ewd:code="FA2" ewd:figID="65" ewd:figtype="w2w" ewd:pinNo="11" style="cursor:pointer;"><path d=" M  1606.23,   375.72  L  1589.23,   375.72  L  1589.23,   384.22  L  1606.23,   384.22  L  1606.23,   375.72 " style="&st2;" /><text style="&st8;" transform="matrix(&st16;  1592.43  382.09 )"><tspan style="&st18;" x="0" y="0">FA2</tspan></text></a><a ewd:code="F1" ewd:figID="66" ewd:figtype="gp" style="cursor:pointer;"><path d=" M  2003.54,   681.67  L  2024.79,   681.67  L  2014.16,   697.25  L  2003.54,   681.67 " style="&st2;" /><text style="&st8;" transform="matrix(&st16;  2010.85  689.46 )"><tspan style="&st18;" x="0" y="0">F1</tspan></text></a><a ewd:code="F2" ewd:figID="67" ewd:figtype="gp" style="cursor:pointer;"><path d=" M  1876.06,   681.67  L  1897.31,   681.67  L  1886.68,   697.25  L  1876.06,   681.67 " style="&st2;" /><text style="&st8;" transform="matrix(&st16;  1883.37  689.46 )"><tspan style="&st18;" x="0" y="0">F2</tspan></text></a><a ewd:code="F2" ewd:figID="68" ewd:figtype="gp" style="cursor:pointer;"><path d=" M    48.87,   681.67  L    70.11,   681.67  L    59.49,   697.25  L    48.87,   681.67 " style="&st2;" /><text style="&st8;" transform="matrix(&st16;  56.18  689.46 )"><tspan style="&st18;" x="0" y="0">F2</tspan></text></a></g></svg>