﻿<?xml version="1.0" encoding="utf-8"?>
<!DOCTYPE svg PUBLIC "-//W3C//DTD SVG 1.0//EN" "http://www.w3.org/TR/2001/REC-SVG-20010904/DTD/svg10.dtd"[
	<!ENTITY ns_flows "http://ns.adobe.com/Flows/1.0/">
	<!ENTITY ns_svg "http://www.w3.org/2000/svg">
	<!ENTITY ns_xlink "http://www.w3.org/1999/xlink">
	<!ENTITY st0 "font-size:7px;font-family:'MS-PGothic';adobe-font-script:japanese;">
	<!ENTITY st1 "font-size:6px;font-family:'ArialMT';">
	<!-- White fill  -->
	<!ENTITY st2 "fill:#FFFFFF;stroke:#000000; stroke-width:1.41;stroke-linecap:round;stroke-linejoin:round;">
	<!-- Yellow fill  -->
	<!ENTITY st3 "fill:#FFFFCC;stroke:#FFFFCC; stroke-width:0.1;stroke-linecap:round;stroke-linejoin:round;">
	<!-- Gray fill  -->
	<!ENTITY st4 "fill:#CCCCCC;stroke:#CCCCCC; stroke-width:0.1;stroke-linecap:round;stroke-linejoin:round;">
	<!-- Light-blue fill -->
	<!ENTITY st5 "fill:#CCECF4;stroke:#000000; stroke-width:1.133;stroke-linecap:round;stroke-linejoin:round;">
	<!ENTITY st6 "fill:none;stroke-linecap:butt; stroke-linejoin:round;">
	<!ENTITY st7 "fill:none;stroke:#000000;stroke-linecap:round;stroke-linejoin:round;">
	<!ENTITY st8 "enable-background:new    ;">
	<!-- Black fill -->
	<!ENTITY st9 "fill:#000000;stroke:#000000; stroke-linecap:round;stroke-linejoin:round;">
	<!-- SRS note   -->
	<!ENTITY st10 "font-size:9px;font-family:'ArialMT';">
	<!ENTITY st11 "font-size:9px;font-family:'Svg Symbol';">
	<!ENTITY st12 "font-size:6px;font-family:'Svg Symbol';">
	<!ENTITY st13 "fill:none;stroke:#ff0000;stroke-linecap:round;stroke-linejoin:round;">
	<!-- Yellow fill  -->
	<!ENTITY st14 "fill:#FFFF00;stroke:#FFFF00; stroke-width:0.1;stroke-linecap:round;stroke-linejoin:round;">
	<!ENTITY st15 "font-size:6px;font-family:'MS-PGothic';adobe-font-script:japanese;">
	<!ENTITY st16 "1.00 0.00 0.00 1.00">
	<!ENTITY st17 "0.00 -1.00 1.00 0.00">
	<!ENTITY st18 "font-size:6px;font-family:'Arial';">
	<!ENTITY st19 "font-size:9px;font-family:'Arial';">
	<!ENTITY st20 "font-size:6px;font-family:'MS-PGothic','MS PGothic';adobe-font-script:japanese;">
	<!ENTITY st21 "font-size:7px;font-family:'MS-PGothic','MS PGothic';adobe-font-script:japanese;">
	<!ATTLIST svg
		xmlns:ewd CDATA #FIXED "http://shcl.co.jp/ewd"
		xmlns:a CDATA #FIXED "http://ns.adobe.com/AdobeSVGViewerExtensions/3.0/"
		ewd:ver CDATA #IMPLIED
	>
	<!ATTLIST a
		ewd:lineID CDATA #IMPLIED
		ewd:groupID CDATA #IMPLIED
		ewd:figtype CDATA #IMPLIED
		ewd:code CDATA #IMPLIED
		ewd:figID CDATA #IMPLIED
		ewd:pinNo CDATA #IMPLIED
		ewd:comment CDATA #IMPLIED >
	<!ATTLIST g
		ewd:lineID CDATA #IMPLIED
		ewd:groupID CDATA #IMPLIED
		ewd:figtype CDATA #IMPLIED
		ewd:code CDATA #IMPLIED
		ewd:figID CDATA #IMPLIED
		ewd:pinNo CDATA #IMPLIED
		ewd:comment CDATA #IMPLIED >
	<!ATTLIST text
		ewd:textID CDATA #IMPLIED >
	<!ATTLIST title
		ewd:textID CDATA #IMPLIED >
]>
<!-- Generator: Shintec Hozumi YS   -->
<svg onload="call_execInitLoadProc_svg('system')" style="overflow:visible;  enable-background:new 0 0 2498.583 710.000" viewBox="0 0 2498.583 710.000" height="710.000" width="2498.583" xml:space="preserve" ewd:ver="L2.1.2.9" xmlns="&ns_svg;" xmlns:a="http://ns.adobe.com/AdobeSVGViewerExtensions/3.0/" xmlns:ewd="http://shcl.co.jp/ewd" xmlns:xlink="&ns_xlink;">
<path d=" M  1455.38,   103.77  L  1451.13,   103.77  " style="stroke-width: 1.42 ;&st7;  " /><path d=" M  1455.38,    95.27  L  1451.13,    95.27  " style="stroke-width: 1.42 ;&st7;  " /><path d=" M  1453.26,    69.77  L  1453.26,    95.27  " style="stroke-width: 0.85 ;&st7;  " /><path d=" M  1455.38,   163.26  L  1451.13,   163.26  " style="stroke-width: 1.42 ;&st7;  " /><path d=" M  1455.38,   171.76  L  1451.13,   171.76  " style="stroke-width: 1.42 ;&st7;  " /><path d=" M  1455.38,   205.75  L  1451.13,   205.75  " style="stroke-width: 1.42 ;&st7;  " /><path d=" M  1455.38,   214.25  L  1451.13,   214.25  " style="stroke-width: 1.42 ;&st7;  " /><path d=" M  1334.28,    69.77  L  1334.28,    78.27  " style="stroke-width: 0.85 ;&st7;  " /><path d=" M  1336.40,    95.27  L  1332.15,    95.27  " style="stroke-width: 1.42 ;&st7;  " /><path d=" M  1336.40,   103.77  L  1332.15,   103.77  " style="stroke-width: 1.42 ;&st7;  " /><path d=" M  1336.40,   214.25  L  1332.15,   214.25  " style="stroke-width: 1.42 ;&st7;  " /><path d=" M  1336.40,   222.75  L  1332.15,   222.75  " style="stroke-width: 1.42 ;&st7;  " /><path d=" M  1336.40,   256.74  L  1332.15,   256.74  " style="stroke-width: 1.42 ;&st7;  " /><path d=" M  1336.40,   265.24  L  1332.15,   265.24  " style="stroke-width: 1.42 ;&st7;  " /><path d=" M  1274.79,   173.17  L  1280.45,   150.51  " style="stroke-width: 1.42 ;&st7;  " /><path d=" M  1274.79,   180.26  L  1274.79,   176.01  " style="stroke-width: 0.85 ;&st7;  " /><path d=" M  1274.79,   146.26  L  1274.79,   150.51  " style="stroke-width: 0.85 ;&st7;  " /><path d=" M  1249.29,   146.26  L  1249.29,   154.76  " style="stroke-width: 0.85 ;&st7;  " /><path d=" M  1249.29,   171.76  L  1249.29,   180.26  " style="stroke-width: 0.85 ;&st7;  " /><path d=" M  1251.42,   120.77  L  1247.17,   120.77  " style="stroke-width: 1.42 ;&st7;  " /><path d=" M  1251.42,   129.26  L  1247.17,   129.26  " style="stroke-width: 1.42 ;&st7;  " /><path d=" M  1276.91,   120.77  L  1272.66,   120.77  " style="stroke-width: 1.42 ;&st7;  " /><path d=" M  1276.91,   129.26  L  1272.66,   129.26  " style="stroke-width: 1.42 ;&st7;  " /><path d=" M  1276.91,   197.25  L  1272.66,   197.25  " style="stroke-width: 1.42 ;&st7;  " /><path d=" M  1276.91,   205.75  L  1272.66,   205.75  " style="stroke-width: 1.42 ;&st7;  " /><path d=" M  1251.42,   197.25  L  1247.17,   197.25  " style="stroke-width: 1.42 ;&st7;  " /><path d=" M  1251.42,   205.75  L  1247.17,   205.75  " style="stroke-width: 1.42 ;&st7;  " /><path d=" M  1121.81,   154.76  L  1113.31,   154.76  " style="stroke-width: 1.42 ;&st7;  " /><path d=" M  1466.00,    78.27  L  1466.00,    35.78  L  1440.51,    35.78  L  1440.51,    78.27  L  1466.00,    78.27  " style="stroke-width: 1.42 ;&st7;  " /><path d=" M  1453.26,    90.37  L  1450.42,    87.54  L  1450.42,    91.79  L  1453.26,    94.62  L  1456.09,    91.79  L  1456.09,    87.54  L  1453.26,    90.37  " style="stroke-width: 0.28 ;&st9;  " /><path d=" M  1453.26,   176.65  L  1456.09,   179.48  L  1456.09,   175.24  L  1453.26,   172.40  L  1450.42,   175.24  L  1450.42,   179.48  L  1453.26,   176.65  " style="stroke-width: 0.28 ;&st9;  " /><path d=" M  1453.26,   200.86  L  1450.42,   198.02  L  1450.42,   202.27  L  1453.26,   205.11  L  1456.09,   202.27  L  1456.09,   198.02  L  1453.26,   200.86  " style="stroke-width: 0.28 ;&st9;  " /><path d=" M  1453.26,   205.75  L  1453.26,   171.76  " style="stroke-width: 0.85 ;&st7;  " /><path d=" M  1334.28,    78.27  L  1334.28,    95.27  " style="stroke-width: 0.85 ;&st7;  " /><path d=" M  1321.53,    35.78  L  1321.53,    78.27  L  1347.02,    78.27  L  1347.02,    35.78  L  1321.53,    35.78  " style="stroke-width: 1.42 ;&st7;  " /><path d=" M  1334.28,    90.37  L  1331.44,    87.54  L  1331.44,    91.79  L  1334.28,    94.62  L  1337.11,    91.79  L  1337.11,    87.54  L  1334.28,    90.37  " style="stroke-width: 0.28 ;&st9;  " /><path d=" M  1334.28,   227.64  L  1337.11,   230.48  L  1337.11,   226.23  L  1334.28,   223.39  L  1331.44,   226.23  L  1331.44,   230.48  L  1334.28,   227.64  " style="stroke-width: 0.28 ;&st9;  " /><path d=" M  1334.28,   251.85  L  1331.44,   249.01  L  1331.44,   253.26  L  1334.28,   256.10  L  1337.11,   253.26  L  1337.11,   249.01  L  1334.28,   251.85  " style="stroke-width: 0.28 ;&st9;  " /><path d=" M  1334.28,   256.74  L  1334.28,   222.75  " style="stroke-width: 0.85 ;&st7;  " /><path d=" M  1325.78,   316.23  L  1342.78,   316.23  L  1342.78,   333.23  L  1325.78,   333.23  L  1325.78,   316.23  " style="stroke-width: 1.42 ;&st7;  " /><path d=" M  1334.28,   316.23  L  1334.28,   333.23  " style="stroke-width: 0.85 ;&st7;  " /><path d=" M  1283.29,   146.26  L  1240.79,   146.26  L  1240.79,   180.26  L  1283.29,   180.26  L  1283.29,   146.26  " style="stroke-width: 1.42 ;&st7;  " /><path d=" M  1249.29,   134.16  L  1252.12,   136.99  L  1252.12,   132.74  L  1249.29,   129.91  L  1246.46,   132.74  L  1246.46,   136.99  L  1249.29,   134.16  " style="stroke-width: 0.28 ;&st9;  " /><path d=" M  1274.79,   134.16  L  1277.62,   136.99  L  1277.62,   132.74  L  1274.79,   129.91  L  1271.95,   132.74  L  1271.95,   136.99  L  1274.79,   134.16  " style="stroke-width: 0.28 ;&st9;  " /><path d=" M  1274.79,   192.36  L  1271.95,   189.52  L  1271.95,   193.77  L  1274.79,   196.61  L  1277.62,   193.77  L  1277.62,   189.52  L  1274.79,   192.36  " style="stroke-width: 0.28 ;&st9;  " /><path d=" M  1249.29,   192.36  L  1246.46,   189.52  L  1246.46,   193.77  L  1249.29,   196.61  L  1252.12,   193.77  L  1252.12,   189.52  L  1249.29,   192.36  " style="stroke-width: 0.28 ;&st9;  " /><path d=" M  1274.79,   146.26  L  1274.79,   129.26  " style="stroke-width: 0.85 ;&st7;  " /><path d=" M  1249.29,   129.26  L  1249.29,   146.26  " style="stroke-width: 0.85 ;&st7;  " /><path d=" M  1274.79,   197.25  L  1274.79,   180.26  " style="stroke-width: 0.85 ;&st7;  " /><path d=" M  1249.29,   197.25  L  1249.29,   180.26  " style="stroke-width: 0.85 ;&st7;  " /><path d=" M  1117.56,   163.82  L  1113.31,   159.58  L  1109.06,   163.82  " style="stroke-width: 1.42 ;&st7;  " /><path d=" M  1117.56,   160.43  L  1113.31,   156.18  L  1109.06,   160.43  " style="stroke-width: 1.42 ;&st7;  " /><path d=" M  1249.29,   697.25  L  1249.29,   701.50  " style="stroke-width: 0.85 ;&st7;  " /><path d=" M  1240.79,   701.50  L  1257.79,   701.50  " style="stroke-width: 0.85 ;&st7;  " /><path d=" M  1245.04,   704.33  L  1253.54,   704.33  " style="stroke-width: 0.85 ;&st7;  " /><path d=" M  1246.46,   707.17  L  1252.12,   707.17  " style="stroke-width: 0.85 ;&st7;  " /><path d=" M  1247.87,   710.00  L  1250.71,   710.00  " style="stroke-width: 0.85 ;&st7;  " /><path d=" M  1240.79,   477.71  L  1240.79,   494.70  L  1257.79,   494.70  L  1257.79,   477.71  L  1240.79,   477.71  " style="stroke-width: 1.42 ;&st7;  " /><path d=" M  1249.29,   477.71  L  1249.29,   494.70  " style="stroke-width: 0.85 ;&st7;  " /><path d=" M  1459.63,    99.52  C  1459.63     97.17   1457.73     95.27   1455.38     95.27  " style="stroke-width: 1.42 ;&st7;   " /><path d=" M  1455.38,   103.77  C  1457.73    103.77   1459.63    101.87   1459.63     99.52  " style="stroke-width: 1.42 ;&st7;   " /><path d=" M  1446.88,    99.52  C  1446.88    101.87   1448.79    103.77   1451.13    103.77  " style="stroke-width: 1.42 ;&st7;   " /><path d=" M  1451.13,    95.27  C  1448.79     95.27   1446.88     97.17   1446.88     99.52  " style="stroke-width: 1.42 ;&st7;   " /><path d=" M  1454.67,    68.36  C  1454.67     67.57   1454.04     66.94   1453.26     66.94  " style="stroke-width: 0.85 ;&st7;   " /><path d=" M  1453.26,    66.94  C  1452.47     66.94   1451.84     67.57   1451.84     68.36  " style="stroke-width: 0.85 ;&st7;   " /><path d=" M  1451.84,    68.36  C  1451.84     69.14   1452.47     69.77   1453.26     69.77  " style="stroke-width: 0.85 ;&st7;   " /><path d=" M  1453.26,    69.77  C  1454.04     69.77   1454.67     69.14   1454.67     68.36  " style="stroke-width: 0.85 ;&st7;   " /><path d=" M  1454.67,    45.69  C  1454.67     44.91   1454.04     44.28   1453.26     44.28  " style="stroke-width: 0.85 ;&st7;   " /><path d=" M  1453.26,    44.28  C  1452.47     44.28   1451.84     44.91   1451.84     45.69  " style="stroke-width: 0.85 ;&st7;   " /><path d=" M  1451.84,    45.69  C  1451.84     46.48   1452.47     47.11   1453.26     47.11  " style="stroke-width: 0.85 ;&st7;   " /><path d=" M  1453.26,    47.11  C  1454.04     47.11   1454.67     46.48   1454.67     45.69  " style="stroke-width: 0.85 ;&st7;   " /><path d=" M  1453.26,    66.94  C  1456.00     65.33   1456.91     61.80   1455.29     59.06  " style="stroke-width: 1.42 ;&st7;   " /><path d=" M  1455.29,    59.06  C  1454.77     58.18   1454.14     57.55   1453.26     57.03  " style="stroke-width: 1.42 ;&st7;   " /><path d=" M  1453.26,    47.11  C  1450.52     48.72   1449.61     52.25   1451.22     54.99  " style="stroke-width: 1.42 ;&st7;   " /><path d=" M  1451.22,    54.99  C  1451.74     55.87   1452.38     56.51   1453.26     57.03  " style="stroke-width: 1.42 ;&st7;   " /><path d=" M  1000.71,   176.01  C  1000.71    173.66    998.81    171.76    996.46    171.76  " style="stroke-width: 1.42 ;&st7;   " /><path d=" M  1451.13,   163.26  C  1448.79    163.26   1446.88    165.16   1446.88    167.51  " style="stroke-width: 1.42 ;&st7;   " /><path d=" M  1446.88,   167.51  C  1446.88    169.85   1448.79    171.76   1451.13    171.76  " style="stroke-width: 1.42 ;&st7;   " /><path d=" M  1455.38,   171.76  C  1457.73    171.76   1459.63    169.85   1459.63    167.51  " style="stroke-width: 1.42 ;&st7;   " /><path d=" M  1459.63,   167.51  C  1459.63    165.16   1457.73    163.26   1455.38    163.26  " style="stroke-width: 1.42 ;&st7;   " /><path d=" M  1451.13,   205.75  C  1448.79    205.75   1446.88    207.65   1446.88    210.00  " style="stroke-width: 1.42 ;&st7;   " /><path d=" M  1446.88,   210.00  C  1446.88    212.35   1448.79    214.25   1451.13    214.25  " style="stroke-width: 1.42 ;&st7;   " /><path d=" M  1455.38,   214.25  C  1457.73    214.25   1459.63    212.35   1459.63    210.00  " style="stroke-width: 1.42 ;&st7;   " /><path d=" M  1459.63,   210.00  C  1459.63    207.65   1457.73    205.75   1455.38    205.75  " style="stroke-width: 1.42 ;&st7;   " /><path d=" M  1338.81,   302.63  C  1338.81    300.13   1336.78    298.10   1334.28    298.10  " style="stroke-width: 1.42 ;&st7;   " /><path d=" M  1334.28,   298.10  C  1331.77    298.10   1329.74    300.13   1329.74    302.63  " style="stroke-width: 1.42 ;&st7;   " /><path d=" M  1329.74,   302.63  C  1329.74    305.14   1331.77    307.17   1334.28    307.17  " style="stroke-width: 1.42 ;&st7;   " /><path d=" M  1334.28,   307.17  C  1336.78    307.17   1338.81    305.14   1338.81    302.63  " style="stroke-width: 1.42 ;&st7;   " /><path d=" M  1338.81,   337.76  C  1338.81    335.26   1336.78    333.23   1334.28    333.23  " style="stroke-width: 1.42 ;&st7;   " /><path d=" M  1334.28,   333.23  C  1331.77    333.23   1329.74    335.26   1329.74    337.76  " style="stroke-width: 1.42 ;&st7;   " /><path d=" M  1329.74,   337.76  C  1329.74    340.27   1331.77    342.29   1334.28    342.29  " style="stroke-width: 1.42 ;&st7;   " /><path d=" M  1334.28,   342.29  C  1336.78    342.29   1338.81    340.27   1338.81    337.76  " style="stroke-width: 1.42 ;&st7;   " /><path d=" M  1338.81,   346.83  C  1338.81    344.32   1336.78    342.29   1334.28    342.29  " style="stroke-width: 1.42 ;&st7;   " /><path d=" M  1334.28,   342.29  C  1331.77    342.29   1329.74    344.32   1329.74    346.83  " style="stroke-width: 1.42 ;&st7;   " /><path d=" M  1329.74,   346.83  C  1329.74    349.33   1331.77    351.36   1334.28    351.36  " style="stroke-width: 1.42 ;&st7;   " /><path d=" M  1334.28,   351.36  C  1336.78    351.36   1338.81    349.33   1338.81    346.83  " style="stroke-width: 1.42 ;&st7;   " /><path d=" M  1334.28,    47.11  C  1331.54     48.72   1330.63     52.25   1332.24     54.99  " style="stroke-width: 1.42 ;&st7;   " /><path d=" M  1332.24,    54.99  C  1332.76     55.87   1333.40     56.51   1334.28     57.03  " style="stroke-width: 1.42 ;&st7;   " /><path d=" M  1334.28,    66.94  C  1337.01     65.33   1337.93     61.80   1336.31     59.06  " style="stroke-width: 1.42 ;&st7;   " /><path d=" M  1336.31,    59.06  C  1335.79     58.18   1335.16     57.55   1334.28     57.03  " style="stroke-width: 1.42 ;&st7;   " /><path d=" M  1335.69,    45.69  C  1335.69     44.91   1335.06     44.28   1334.28     44.28  " style="stroke-width: 0.85 ;&st7;   " /><path d=" M  1334.28,    44.28  C  1333.49     44.28   1332.86     44.91   1332.86     45.69  " style="stroke-width: 0.85 ;&st7;   " /><path d=" M  1332.86,    45.69  C  1332.86     46.48   1333.49     47.11   1334.28     47.11  " style="stroke-width: 0.85 ;&st7;   " /><path d=" M  1334.28,    47.11  C  1335.06     47.11   1335.69     46.48   1335.69     45.69  " style="stroke-width: 0.85 ;&st7;   " /><path d=" M  1335.69,    68.36  C  1335.69     67.57   1335.06     66.94   1334.28     66.94  " style="stroke-width: 0.85 ;&st7;   " /><path d=" M  1334.28,    66.94  C  1333.49     66.94   1332.86     67.57   1332.86     68.36  " style="stroke-width: 0.85 ;&st7;   " /><path d=" M  1332.86,    68.36  C  1332.86     69.14   1333.49     69.77   1334.28     69.77  " style="stroke-width: 0.85 ;&st7;   " /><path d=" M  1334.28,    69.77  C  1335.06     69.77   1335.69     69.14   1335.69     68.36  " style="stroke-width: 0.85 ;&st7;   " /><path d=" M  1332.15,    95.27  C  1329.81     95.27   1327.90     97.17   1327.90     99.52  " style="stroke-width: 1.42 ;&st7;   " /><path d=" M  1327.90,    99.52  C  1327.90    101.87   1329.81    103.77   1332.15    103.77  " style="stroke-width: 1.42 ;&st7;   " /><path d=" M  1336.40,   103.77  C  1338.75    103.77   1340.65    101.87   1340.65     99.52  " style="stroke-width: 1.42 ;&st7;   " /><path d=" M  1340.65,    99.52  C  1340.65     97.17   1338.75     95.27   1336.40     95.27  " style="stroke-width: 1.42 ;&st7;   " /><path d=" M  1332.15,   214.25  C  1329.81    214.25   1327.90    216.15   1327.90    218.50  " style="stroke-width: 1.42 ;&st7;   " /><path d=" M  1327.90,   218.50  C  1327.90    220.85   1329.81    222.75   1332.15    222.75  " style="stroke-width: 1.42 ;&st7;   " /><path d=" M  1336.40,   222.75  C  1338.75    222.75   1340.65    220.85   1340.65    218.50  " style="stroke-width: 1.42 ;&st7;   " /><path d=" M  1340.65,   218.50  C  1340.65    216.15   1338.75    214.25   1336.40    214.25  " style="stroke-width: 1.42 ;&st7;   " /><path d=" M  1332.15,   256.74  C  1329.81    256.74   1327.90    258.64   1327.90    260.99  " style="stroke-width: 1.42 ;&st7;   " /><path d=" M  1327.90,   260.99  C  1327.90    263.34   1329.81    265.24   1332.15    265.24  " style="stroke-width: 1.42 ;&st7;   " /><path d=" M  1336.40,   265.24  C  1338.75    265.24   1340.65    263.34   1340.65    260.99  " style="stroke-width: 1.42 ;&st7;   " /><path d=" M  1340.65,   260.99  C  1340.65    258.64   1338.75    256.74   1336.40    256.74  " style="stroke-width: 1.42 ;&st7;   " /><path d=" M  1276.20,   174.59  C  1276.20    173.81   1275.57    173.17   1274.79    173.17  " style="stroke-width: 0.85 ;&st7;   " /><path d=" M  1274.79,   173.17  C  1274.00    173.17   1273.37    173.81   1273.37    174.59  " style="stroke-width: 0.85 ;&st7;   " /><path d=" M  1273.37,   174.59  C  1273.37    175.37   1274.00    176.01   1274.79    176.01  " style="stroke-width: 0.85 ;&st7;   " /><path d=" M  1274.79,   176.01  C  1275.57    176.01   1276.20    175.37   1276.20    174.59  " style="stroke-width: 0.85 ;&st7;   " /><path d=" M  1276.20,   151.93  C  1276.20    151.14   1275.57    150.51   1274.79    150.51  " style="stroke-width: 0.85 ;&st7;   " /><path d=" M  1274.79,   150.51  C  1274.00    150.51   1273.37    151.14   1273.37    151.93  " style="stroke-width: 0.85 ;&st7;   " /><path d=" M  1273.37,   151.93  C  1273.37    152.71   1274.00    153.34   1274.79    153.34  " style="stroke-width: 0.85 ;&st7;   " /><path d=" M  1274.79,   153.34  C  1275.57    153.34   1276.20    152.71   1276.20    151.93  " style="stroke-width: 0.85 ;&st7;   " /><path d=" M  1246.76,   160.78  C  1248.13    162.18   1250.37    162.20   1251.77    160.83  " style="stroke-width: 0.85 ;&st7;   " /><path d=" M  1251.77,   160.83  C  1253.17    159.46   1253.19    157.22   1251.82    155.82  " style="stroke-width: 0.85 ;&st7;   " /><path d=" M  1251.82,   155.82  C  1251.13    155.11   1250.28    154.76   1249.29    154.76  " style="stroke-width: 0.85 ;&st7;   " /><path d=" M  1246.76,   165.74  C  1248.13    167.13   1250.37    167.16   1251.77    165.79  " style="stroke-width: 0.85 ;&st7;   " /><path d=" M  1251.77,   165.79  C  1253.17    164.42   1253.19    162.18   1251.82    160.78  " style="stroke-width: 0.85 ;&st7;   " /><path d=" M  1251.82,   160.78  C  1250.45    159.38   1248.21    159.36   1246.81    160.73  " style="stroke-width: 0.85 ;&st7;   " /><path d=" M  1246.81,   160.73  C  1246.79    160.75   1246.78    160.76   1246.76    160.78  " style="stroke-width: 0.85 ;&st7;   " /><path d=" M  1249.29,   171.76  C  1251.25    171.76   1252.83    170.17   1252.83    168.22  " style="stroke-width: 0.85 ;&st7;   " /><path d=" M  1252.83,   168.22  C  1252.83    166.26   1251.25    164.67   1249.29    164.67  " style="stroke-width: 0.85 ;&st7;   " /><path d=" M  1249.29,   164.67  C  1248.30    164.67   1247.46    165.03   1246.76    165.74  " style="stroke-width: 0.85 ;&st7;   " /><path d=" M  1247.17,   120.77  C  1244.82    120.77   1242.92    122.67   1242.92    125.01  " style="stroke-width: 1.42 ;&st7;   " /><path d=" M  1242.92,   125.01  C  1242.92    127.36   1244.82    129.26   1247.17    129.26  " style="stroke-width: 1.42 ;&st7;   " /><path d=" M  1251.42,   129.26  C  1253.76    129.26   1255.67    127.36   1255.67    125.01  " style="stroke-width: 1.42 ;&st7;   " /><path d=" M  1255.67,   125.01  C  1255.67    122.67   1253.76    120.77   1251.42    120.77  " style="stroke-width: 1.42 ;&st7;   " /><path d=" M  1272.66,   120.77  C  1270.32    120.77   1268.41    122.67   1268.41    125.01  " style="stroke-width: 1.42 ;&st7;   " /><path d=" M  1268.41,   125.01  C  1268.41    127.36   1270.32    129.26   1272.66    129.26  " style="stroke-width: 1.42 ;&st7;   " /><path d=" M  1276.91,   129.26  C  1279.26    129.26   1281.16    127.36   1281.16    125.01  " style="stroke-width: 1.42 ;&st7;   " /><path d=" M  1281.16,   125.01  C  1281.16    122.67   1279.26    120.77   1276.91    120.77  " style="stroke-width: 1.42 ;&st7;   " /><path d=" M  1272.66,   197.25  C  1270.32    197.25   1268.41    199.15   1268.41    201.50  " style="stroke-width: 1.42 ;&st7;   " /><path d=" M  1268.41,   201.50  C  1268.41    203.85   1270.32    205.75   1272.66    205.75  " style="stroke-width: 1.42 ;&st7;   " /><path d=" M  1276.91,   205.75  C  1279.26    205.75   1281.16    203.85   1281.16    201.50  " style="stroke-width: 1.42 ;&st7;   " /><path d=" M  1281.16,   201.50  C  1281.16    199.15   1279.26    197.25   1276.91    197.25  " style="stroke-width: 1.42 ;&st7;   " /><path d=" M  1247.17,   197.25  C  1244.82    197.25   1242.92    199.15   1242.92    201.50  " style="stroke-width: 1.42 ;&st7;   " /><path d=" M  1242.92,   201.50  C  1242.92    203.85   1244.82    205.75   1247.17    205.75  " style="stroke-width: 1.42 ;&st7;   " /><path d=" M  1251.42,   205.75  C  1253.76    205.75   1255.67    203.85   1255.67    201.50  " style="stroke-width: 1.42 ;&st7;   " /><path d=" M  1255.67,   201.50  C  1255.67    199.15   1253.76    197.25   1251.42    197.25  " style="stroke-width: 1.42 ;&st7;   " /><path d=" M  1117.85,    82.80  C  1117.85     80.30   1115.82     78.27   1113.31     78.27  " style="stroke-width: 1.42 ;&st7;   " /><path d=" M  1113.31,    78.27  C  1110.81     78.27   1108.78     80.30   1108.78     82.80  " style="stroke-width: 1.42 ;&st7;   " /><path d=" M  1108.78,    82.80  C  1108.78     85.31   1110.81     87.34   1113.31     87.34  " style="stroke-width: 1.42 ;&st7;   " /><path d=" M  1113.31,    87.34  C  1115.82     87.34   1117.85     85.31   1117.85     82.80  " style="stroke-width: 1.42 ;&st7;   " /><path d=" M  1338.81,   311.70  C  1338.81    309.20   1336.78    307.17   1334.28    307.17  " style="stroke-width: 1.42 ;&st7;   " /><path d=" M  1334.28,   307.17  C  1331.77    307.17   1329.74    309.20   1329.74    311.70  " style="stroke-width: 1.42 ;&st7;   " /><path d=" M  1329.74,   311.70  C  1329.74    314.20   1331.77    316.23   1334.28    316.23  " style="stroke-width: 1.42 ;&st7;   " /><path d=" M  1334.28,   316.23  C  1336.78    316.23   1338.81    314.20   1338.81    311.70  " style="stroke-width: 1.42 ;&st7;   " /><text style="&st18;" transform="matrix(&st17;  1449.56  139.33 )">L</text><text style="&st18;" transform="matrix(&st16;  1447.07  86.47 )">2</text><text style="&st18;" transform="matrix(&st16;  1469.68  56.17 )">10A <tspan dy="6.0" x="0 ">ECU-B</tspan></text><text style="&st18;" transform="matrix(&st16;  1451.46  101.49 )">1</text><text style="&st18;" transform="matrix(&st16;  1445.21  32.08 )">(BAT)</text><text style="&st18;" transform="matrix(&st16;  1449.32  169.48 )">2D</text><text style="&st18;" transform="matrix(&st16;  1439.65  169.48 )">39</text><text style="&st18;" transform="matrix(&st16;  1449.6  211.97 )">2F</text><text style="&st18;" transform="matrix(&st16;  1439.65  211.97 )">19</text><text style="&st18;" transform="matrix(&st16;  1058.58  414.52 )">SB</text><text style="&st18;" transform="matrix(&st16;  1007.59  414.52 )">SB</text><text ewd:textID="2" style="&st18;" transform="matrix(&st16;  1339.37  581.66 )">* 2 :From Aug. 2012 Production</text><text ewd:textID="11" style="&st18;" transform="matrix(&st16;  1067.42  40.58 )">Main Body ECU</text><text ewd:textID="1" style="&st18;" transform="matrix(&st16;  1339.37  573.16 )">* 1 :Before Aug. 2012 Production</text><text style="&st18;" transform="matrix(&st16;  1350.7  56.17 )">10A <tspan dy="6.0" x="0 ">DOME</tspan></text><text style="&st18;" transform="matrix(&st16;  1326.23  32.08 )">(BAT)</text><text style="&st18;" transform="matrix(&st16;  1332.48  101.49 )">1</text><text style="&st18;" transform="matrix(&st17;  1330.58  159.86 )">R-B</text><text style="&st18;" transform="matrix(&st17;  1330.58  283.85 )">R</text><text style="&st18;" transform="matrix(&st16;  1328.09  86.47 )">2</text><text style="&st18;" transform="matrix(&st16;  1330.34  220.47 )">2D</text><text style="&st18;" transform="matrix(&st16;  1320.67  220.47 )">33</text><text style="&st18;" transform="matrix(&st16;  1330.62  262.96 )">2F</text><text style="&st18;" transform="matrix(&st16;  1320.67  262.96 )">32</text><text style="&st18;" transform="matrix(&st16;  1243.11  188.45 )">1</text><text style="&st18;" transform="matrix(&st16;  1268.6  188.45 )">3</text><text style="&st18;" transform="matrix(&st16;  1243.11  142.57 )">2</text><text style="&st18;" transform="matrix(&st16;  1268.6  142.57 )">5</text><text style="&st18;" transform="matrix(&st16;  1247.49  126.98 )">1</text><text style="&st18;" transform="matrix(&st16;  1272.99  126.98 )">1</text><text style="&st18;" transform="matrix(&st16;  1272.99  203.47 )">1</text><text style="&st18;" transform="matrix(&st16;  1247.49  203.47 )">1</text><text style="&st18;" transform="matrix(&st16;  1286.18  91.57 )">R-B</text><text style="&st18;" transform="matrix(&st16;  1286.57  102.9 )">(*2)</text><text style="&st18;" transform="matrix(&st16;  1289.67  219.05 )">R</text><text style="&st18;" transform="matrix(&st16;  1286.57  230.38 )">(*2)</text><text style="&st18;" transform="matrix(&st17;  1341.91  159.47 )">(*1)</text><text style="&st18;" transform="matrix(&st16;  1111.13  84.77 )">B</text><text style="&st18;" transform="matrix(&st16;  1104.62  84.77 )">2</text><text style="&st18;" transform="matrix(&st16;  1104.22  74.58 )">DOMR</text><text style="&st18;" transform="matrix(&st16;  1097.58  152.48 )">62</text><text style="&st18;" transform="matrix(&st17;  1203.1  156.56 )">V</text><text style="&st18;" transform="matrix(&st17;  1214.43  159.47 )">(*2)</text><text style="&st18;" transform="matrix(&st17;  1109.62  114.07 )">V</text><text style="&st18;" transform="matrix(&st17;  1120.95  116.98 )">(*2)</text><text style="&st18;" transform="matrix(&st16;  1240.01  474.02 )">12</text><text style="&st18;" transform="matrix(&st16;  1243.11  502.9 )">1</text><text ewd:textID="9" style="&st18;" transform="matrix(&st16;  1260.05  486.76 )">Junction <tspan dy="6.0" x="0 ">Connector</tspan></text><text style="&st18;" transform="matrix(&st16;  1260.04  479.65 )">A38</text><text style="&st18;" transform="matrix(&st17;  1245.6  305.19 )">W-B</text><text style="&st18;" transform="matrix(&st17;  1256.93  303.95 )">(*2)</text><text style="&st18;" transform="matrix(&st17;  1245.6  560.15 )">W-B</text><text style="&st18;" transform="matrix(&st17;  1256.93  558.91 )">(*2)</text><text ewd:textID="6" style="&st18;" transform="matrix(&st16;  1285.55  162.4 )">DOME <tspan dy="6.0" x="0 ">Relay</tspan></text><text style="&st18;" transform="matrix(&st16;  1067.41  33.47 )">F8(A),F9(B),F10(C)</text><text ewd:textID="4" style="&st18;" transform="matrix(&st16;  1339.37  598.65 )">* 4 :From Aug. 2013 Production</text><text ewd:textID="3" style="&st18;" transform="matrix(&st16;  1339.37  590.16 )">* 3 :Before Aug. 2013 Production</text><text style="&st18;" transform="matrix(&st16;  1339.37  313.67 )">(*4)</text><text style="&st18;" transform="matrix(&st16;  1325.58  313.67 )">2</text><text style="&st18;" transform="matrix(&st16;  1332.09  313.67 )">B</text><text style="&st18;" transform="matrix(&st16;  1339.37  304.6 )">(*3)</text><text style="&st18;" transform="matrix(&st16;  1325.58  304.6 )">2</text><text style="&st18;" transform="matrix(&st16;  1331.97  304.6 )">A</text><text style="&st18;" transform="matrix(&st16;  1339.37  339.73 )">(*3)</text><text style="&st18;" transform="matrix(&st16;  1325.58  339.73 )">3</text><text style="&st18;" transform="matrix(&st16;  1331.97  339.73 )">A</text><text style="&st18;" transform="matrix(&st16;  1339.37  348.8 )">(*4)</text><text style="&st18;" transform="matrix(&st16;  1325.58  348.8 )">3</text><text style="&st18;" transform="matrix(&st16;  1332.09  348.8 )">B</text><text ewd:textID="9" style="&st18;" transform="matrix(&st17;  1316.13  336.14 )">Junction <tspan dy="6.0" x="0 ">Connector</tspan></text><text style="&st18;" transform="matrix(&st17;  1309.31  336.13 )">O18(A),(B)</text></svg>